<?xml version="1.0" encoding="utf-8"?>
<!DOCTYPE eagle SYSTEM "eagle.dtd">
<eagle version="9.3.0">
<drawing>
<settings>
<setting alwaysvectorfont="no"/>
<setting verticaltext="up"/>
</settings>
<grid distance="0.1" unitdist="inch" unit="inch" style="lines" multiple="1" display="no" altdistance="0.01" altunitdist="inch" altunit="inch"/>
<layers>
<layer number="1" name="Top" color="4" fill="1" visible="no" active="no"/>
<layer number="2" name="Route2" color="1" fill="3" visible="no" active="no"/>
<layer number="3" name="Route3" color="4" fill="3" visible="no" active="no"/>
<layer number="4" name="Route4" color="1" fill="4" visible="no" active="no"/>
<layer number="5" name="Route5" color="4" fill="4" visible="no" active="no"/>
<layer number="6" name="Route6" color="1" fill="8" visible="no" active="no"/>
<layer number="7" name="Route7" color="4" fill="8" visible="no" active="no"/>
<layer number="8" name="Route8" color="1" fill="2" visible="no" active="no"/>
<layer number="9" name="Route9" color="4" fill="2" visible="no" active="no"/>
<layer number="10" name="Route10" color="1" fill="7" visible="no" active="no"/>
<layer number="11" name="Route11" color="4" fill="7" visible="no" active="no"/>
<layer number="12" name="Route12" color="1" fill="5" visible="no" active="no"/>
<layer number="13" name="Route13" color="4" fill="5" visible="no" active="no"/>
<layer number="14" name="Route14" color="1" fill="6" visible="no" active="no"/>
<layer number="15" name="Route15" color="4" fill="6" visible="no" active="no"/>
<layer number="16" name="Bottom" color="1" fill="1" visible="no" active="no"/>
<layer number="17" name="Pads" color="2" fill="1" visible="no" active="no"/>
<layer number="18" name="Vias" color="2" fill="1" visible="no" active="no"/>
<layer number="19" name="Unrouted" color="6" fill="1" visible="no" active="no"/>
<layer number="20" name="Dimension" color="15" fill="1" visible="no" active="no"/>
<layer number="21" name="tPlace" color="7" fill="1" visible="no" active="no"/>
<layer number="22" name="bPlace" color="7" fill="1" visible="no" active="no"/>
<layer number="23" name="tOrigins" color="15" fill="1" visible="no" active="no"/>
<layer number="24" name="bOrigins" color="15" fill="1" visible="no" active="no"/>
<layer number="25" name="tNames" color="7" fill="1" visible="no" active="no"/>
<layer number="26" name="bNames" color="7" fill="1" visible="no" active="no"/>
<layer number="27" name="tValues" color="7" fill="1" visible="no" active="no"/>
<layer number="28" name="bValues" color="7" fill="1" visible="no" active="no"/>
<layer number="29" name="tStop" color="7" fill="3" visible="no" active="no"/>
<layer number="30" name="bStop" color="7" fill="6" visible="no" active="no"/>
<layer number="31" name="tCream" color="7" fill="4" visible="no" active="no"/>
<layer number="32" name="bCream" color="7" fill="5" visible="no" active="no"/>
<layer number="33" name="tFinish" color="6" fill="3" visible="no" active="no"/>
<layer number="34" name="bFinish" color="6" fill="6" visible="no" active="no"/>
<layer number="35" name="tGlue" color="7" fill="4" visible="no" active="no"/>
<layer number="36" name="bGlue" color="7" fill="5" visible="no" active="no"/>
<layer number="37" name="tTest" color="7" fill="1" visible="no" active="no"/>
<layer number="38" name="bTest" color="7" fill="1" visible="no" active="no"/>
<layer number="39" name="tKeepout" color="4" fill="11" visible="no" active="no"/>
<layer number="40" name="bKeepout" color="1" fill="11" visible="no" active="no"/>
<layer number="41" name="tRestrict" color="4" fill="10" visible="no" active="no"/>
<layer number="42" name="bRestrict" color="1" fill="10" visible="no" active="no"/>
<layer number="43" name="vRestrict" color="2" fill="10" visible="no" active="no"/>
<layer number="44" name="Drills" color="7" fill="1" visible="no" active="no"/>
<layer number="45" name="Holes" color="7" fill="1" visible="no" active="no"/>
<layer number="46" name="Milling" color="3" fill="1" visible="no" active="no"/>
<layer number="47" name="Measures" color="7" fill="1" visible="no" active="no"/>
<layer number="48" name="Document" color="7" fill="1" visible="no" active="no"/>
<layer number="49" name="Reference" color="7" fill="1" visible="no" active="no"/>
<layer number="50" name="dxf" color="7" fill="1" visible="no" active="no"/>
<layer number="51" name="tDocu" color="7" fill="1" visible="no" active="no"/>
<layer number="52" name="bDocu" color="7" fill="1" visible="no" active="no"/>
<layer number="53" name="tGND_GNDA" color="7" fill="9" visible="no" active="no"/>
<layer number="54" name="bGND_GNDA" color="1" fill="9" visible="no" active="no"/>
<layer number="56" name="wert" color="7" fill="1" visible="no" active="no"/>
<layer number="57" name="tCAD" color="7" fill="1" visible="no" active="no"/>
<layer number="59" name="tCarbon" color="7" fill="1" visible="no" active="no"/>
<layer number="60" name="bCarbon" color="7" fill="1" visible="no" active="no"/>
<layer number="88" name="SimResults" color="9" fill="1" visible="yes" active="yes"/>
<layer number="89" name="SimProbes" color="9" fill="1" visible="yes" active="yes"/>
<layer number="90" name="Modules" color="5" fill="1" visible="yes" active="yes"/>
<layer number="91" name="Nets" color="2" fill="1" visible="yes" active="yes"/>
<layer number="92" name="Busses" color="1" fill="1" visible="yes" active="yes"/>
<layer number="93" name="Pins" color="2" fill="1" visible="no" active="yes"/>
<layer number="94" name="Symbols" color="4" fill="1" visible="yes" active="yes"/>
<layer number="95" name="Names" color="7" fill="1" visible="yes" active="yes"/>
<layer number="96" name="Values" color="7" fill="1" visible="yes" active="yes"/>
<layer number="97" name="Info" color="7" fill="1" visible="yes" active="yes"/>
<layer number="98" name="Guide" color="6" fill="1" visible="yes" active="yes"/>
<layer number="99" name="SpiceOrder" color="7" fill="1" visible="yes" active="yes"/>
<layer number="100" name="Muster" color="7" fill="1" visible="no" active="no"/>
<layer number="101" name="Patch_Top" color="12" fill="4" visible="no" active="yes"/>
<layer number="102" name="Vscore" color="7" fill="1" visible="no" active="yes"/>
<layer number="103" name="tMap" color="7" fill="1" visible="no" active="yes"/>
<layer number="104" name="Name" color="7" fill="1" visible="no" active="yes"/>
<layer number="105" name="tPlate" color="7" fill="1" visible="no" active="yes"/>
<layer number="106" name="bPlate" color="7" fill="1" visible="no" active="yes"/>
<layer number="107" name="Crop" color="7" fill="1" visible="no" active="yes"/>
<layer number="108" name="tplace-old" color="10" fill="1" visible="no" active="yes"/>
<layer number="109" name="ref-old" color="11" fill="1" visible="no" active="yes"/>
<layer number="110" name="fp0" color="7" fill="1" visible="no" active="yes"/>
<layer number="111" name="LPC17xx" color="7" fill="1" visible="no" active="yes"/>
<layer number="112" name="tSilk" color="7" fill="1" visible="no" active="yes"/>
<layer number="113" name="IDFDebug" color="7" fill="1" visible="no" active="yes"/>
<layer number="114" name="Badge_Outline" color="7" fill="1" visible="no" active="yes"/>
<layer number="115" name="ReferenceISLANDS" color="7" fill="1" visible="no" active="yes"/>
<layer number="116" name="Patch_BOT" color="9" fill="4" visible="no" active="yes"/>
<layer number="118" name="Rect_Pads" color="7" fill="1" visible="no" active="yes"/>
<layer number="121" name="_tsilk" color="7" fill="1" visible="no" active="yes"/>
<layer number="122" name="_bsilk" color="7" fill="1" visible="no" active="yes"/>
<layer number="123" name="tTestmark" color="7" fill="1" visible="no" active="yes"/>
<layer number="124" name="bTestmark" color="7" fill="1" visible="no" active="yes"/>
<layer number="125" name="_tNames" color="7" fill="1" visible="no" active="yes"/>
<layer number="126" name="_bNames" color="7" fill="1" visible="no" active="yes"/>
<layer number="127" name="_tValues" color="7" fill="1" visible="no" active="yes"/>
<layer number="128" name="_bValues" color="7" fill="1" visible="no" active="yes"/>
<layer number="129" name="Mask" color="7" fill="1" visible="no" active="yes"/>
<layer number="131" name="tAdjust" color="7" fill="1" visible="no" active="yes"/>
<layer number="132" name="bAdjust" color="7" fill="1" visible="no" active="yes"/>
<layer number="144" name="Drill_legend" color="7" fill="1" visible="no" active="yes"/>
<layer number="150" name="Notes" color="7" fill="1" visible="no" active="yes"/>
<layer number="151" name="HeatSink" color="7" fill="1" visible="no" active="yes"/>
<layer number="152" name="_bDocu" color="7" fill="1" visible="no" active="yes"/>
<layer number="153" name="FabDoc1" color="7" fill="1" visible="no" active="yes"/>
<layer number="154" name="FabDoc2" color="7" fill="1" visible="no" active="yes"/>
<layer number="155" name="FabDoc3" color="7" fill="1" visible="no" active="yes"/>
<layer number="199" name="Contour" color="7" fill="1" visible="no" active="yes"/>
<layer number="200" name="200bmp" color="1" fill="10" visible="no" active="yes"/>
<layer number="201" name="201bmp" color="2" fill="10" visible="no" active="yes"/>
<layer number="202" name="202bmp" color="3" fill="10" visible="no" active="yes"/>
<layer number="203" name="203bmp" color="4" fill="10" visible="no" active="yes"/>
<layer number="204" name="204bmp" color="5" fill="10" visible="no" active="yes"/>
<layer number="205" name="205bmp" color="6" fill="10" visible="no" active="yes"/>
<layer number="206" name="206bmp" color="7" fill="10" visible="no" active="yes"/>
<layer number="207" name="207bmp" color="8" fill="10" visible="no" active="yes"/>
<layer number="208" name="208bmp" color="9" fill="10" visible="no" active="yes"/>
<layer number="209" name="209bmp" color="7" fill="1" visible="no" active="yes"/>
<layer number="210" name="210bmp" color="7" fill="1" visible="no" active="yes"/>
<layer number="211" name="211bmp" color="7" fill="1" visible="no" active="yes"/>
<layer number="212" name="212bmp" color="7" fill="1" visible="no" active="yes"/>
<layer number="213" name="213bmp" color="7" fill="1" visible="no" active="yes"/>
<layer number="214" name="214bmp" color="7" fill="1" visible="no" active="yes"/>
<layer number="215" name="215bmp" color="7" fill="1" visible="no" active="yes"/>
<layer number="216" name="216bmp" color="7" fill="1" visible="no" active="yes"/>
<layer number="217" name="217bmp" color="18" fill="1" visible="no" active="no"/>
<layer number="218" name="218bmp" color="19" fill="1" visible="no" active="no"/>
<layer number="219" name="219bmp" color="20" fill="1" visible="no" active="no"/>
<layer number="220" name="220bmp" color="21" fill="1" visible="no" active="no"/>
<layer number="221" name="221bmp" color="22" fill="1" visible="no" active="no"/>
<layer number="222" name="222bmp" color="23" fill="1" visible="no" active="no"/>
<layer number="223" name="223bmp" color="24" fill="1" visible="no" active="no"/>
<layer number="224" name="224bmp" color="25" fill="1" visible="no" active="no"/>
<layer number="225" name="225bmp" color="7" fill="1" visible="no" active="yes"/>
<layer number="226" name="226bmp" color="7" fill="1" visible="no" active="yes"/>
<layer number="227" name="227bmp" color="7" fill="1" visible="no" active="yes"/>
<layer number="228" name="228bmp" color="7" fill="1" visible="no" active="yes"/>
<layer number="229" name="229bmp" color="7" fill="1" visible="no" active="yes"/>
<layer number="230" name="230bmp" color="7" fill="1" visible="no" active="yes"/>
<layer number="231" name="231bmp" color="7" fill="1" visible="no" active="yes"/>
<layer number="232" name="Eagle3D_PG2" color="7" fill="1" visible="no" active="yes"/>
<layer number="233" name="Eagle3D_PG3" color="7" fill="1" visible="no" active="yes"/>
<layer number="248" name="Housing" color="7" fill="1" visible="no" active="yes"/>
<layer number="249" name="Edge" color="7" fill="1" visible="no" active="yes"/>
<layer number="250" name="Descript" color="3" fill="1" visible="no" active="no"/>
<layer number="251" name="SMDround" color="12" fill="11" visible="no" active="no"/>
<layer number="254" name="cooling" color="7" fill="1" visible="no" active="yes"/>
<layer number="255" name="routoute" color="7" fill="1" visible="no" active="yes"/>
</layers>
<schematic xreflabel="%F%N/%S.%C%R" xrefpart="/%S.%C%R">
<libraries>
<library name="fab">
<packages>
<package name="R1206">
<description>&lt;b&gt;RESISTOR&lt;/b&gt;</description>
<wire x1="0.9525" y1="-0.8128" x2="-0.9652" y2="-0.8128" width="0.1524" layer="51"/>
<wire x1="0.9525" y1="0.8128" x2="-0.9652" y2="0.8128" width="0.1524" layer="51"/>
<wire x1="-2.473" y1="0.983" x2="2.473" y2="0.983" width="0.0508" layer="39"/>
<wire x1="2.473" y1="0.983" x2="2.473" y2="-0.983" width="0.0508" layer="39"/>
<wire x1="2.473" y1="-0.983" x2="-2.473" y2="-0.983" width="0.0508" layer="39"/>
<wire x1="-2.473" y1="-0.983" x2="-2.473" y2="0.983" width="0.0508" layer="39"/>
<smd name="2" x="1.422" y="0" dx="1.6" dy="1.803" layer="1"/>
<smd name="1" x="-1.422" y="0" dx="1.6" dy="1.803" layer="1"/>
<text x="-1.27" y="1.27" size="1.27" layer="25">&gt;NAME</text>
<text x="-1.27" y="-2.54" size="1.27" layer="27">&gt;VALUE</text>
<rectangle x1="-1.6891" y1="-0.8763" x2="-0.9525" y2="0.8763" layer="51"/>
<rectangle x1="0.9525" y1="-0.8763" x2="1.6891" y2="0.8763" layer="51"/>
<rectangle x1="-0.3" y1="-0.7" x2="0.3" y2="0.7" layer="35"/>
</package>
<package name="R1206W">
<description>&lt;b&gt;RESISTOR&lt;/b&gt;&lt;p&gt;
wave soldering</description>
<wire x1="-0.913" y1="0.8" x2="0.888" y2="0.8" width="0.1524" layer="51"/>
<wire x1="-0.913" y1="-0.8" x2="0.888" y2="-0.8" width="0.1524" layer="51"/>
<wire x1="-2.473" y1="0.983" x2="2.473" y2="0.983" width="0.0508" layer="39"/>
<wire x1="2.473" y1="0.983" x2="2.473" y2="-0.983" width="0.0508" layer="39"/>
<wire x1="2.473" y1="-0.983" x2="-2.473" y2="-0.983" width="0.0508" layer="39"/>
<wire x1="-2.473" y1="-0.983" x2="-2.473" y2="0.983" width="0.0508" layer="39"/>
<smd name="1" x="-1.499" y="0" dx="1.8" dy="1.2" layer="1"/>
<smd name="2" x="1.499" y="0" dx="1.8" dy="1.2" layer="1"/>
<text x="-1.905" y="1.27" size="1.27" layer="25">&gt;NAME</text>
<text x="-1.905" y="-2.54" size="1.27" layer="27">&gt;VALUE</text>
<rectangle x1="-1.651" y1="-0.8763" x2="-0.9009" y2="0.8738" layer="51"/>
<rectangle x1="0.889" y1="-0.8763" x2="1.6391" y2="0.8738" layer="51"/>
<rectangle x1="-0.3" y1="-0.7" x2="0.3" y2="0.7" layer="35"/>
</package>
<package name="R1206FAB">
<wire x1="-2.032" y1="1.016" x2="2.032" y2="1.016" width="0.127" layer="21"/>
<wire x1="2.032" y1="1.016" x2="2.032" y2="-1.016" width="0.127" layer="21"/>
<wire x1="2.032" y1="-1.016" x2="-2.032" y2="-1.016" width="0.127" layer="21"/>
<wire x1="-2.032" y1="-1.016" x2="-2.032" y2="1.016" width="0.127" layer="21"/>
<smd name="1" x="-1.651" y="0" dx="1.27" dy="1.905" layer="1"/>
<smd name="2" x="1.651" y="0" dx="1.27" dy="1.905" layer="1"/>
<text x="-1.778" y="1.27" size="1.016" layer="25" ratio="15">&gt;NAME</text>
<text x="-1.778" y="-2.286" size="1.016" layer="27" ratio="15">&gt;VALUE</text>
</package>
<package name="2X02SMD">
<smd name="1" x="-2.54" y="1.27" dx="2.54" dy="1.27" layer="1"/>
<smd name="3" x="-2.54" y="-1.27" dx="2.54" dy="1.27" layer="1"/>
<smd name="2" x="2.92" y="1.27" dx="2.54" dy="1.27" layer="1"/>
<smd name="4" x="2.92" y="-1.27" dx="2.54" dy="1.27" layer="1"/>
<text x="-5.08" y="1.27" size="1.27" layer="27">1</text>
<text x="-3.81" y="2.54" size="1.27" layer="21">&gt;NAME</text>
<text x="-3.81" y="-3.81" size="1.27" layer="21">&gt;VALUE</text>
</package>
<package name="2X05SMD">
<smd name="1" x="-2.54" y="2.54" dx="2.54" dy="1.27" layer="1"/>
<smd name="3" x="-2.54" y="0" dx="2.54" dy="1.27" layer="1"/>
<smd name="5" x="-2.54" y="-2.54" dx="2.54" dy="1.27" layer="1"/>
<smd name="2" x="2.92" y="2.54" dx="2.54" dy="1.27" layer="1"/>
<smd name="4" x="2.92" y="0" dx="2.54" dy="1.27" layer="1"/>
<smd name="6" x="2.92" y="-2.54" dx="2.54" dy="1.27" layer="1"/>
<text x="-5.08" y="2.54" size="1.27" layer="27">1</text>
<text x="-3.81" y="3.81" size="1.27" layer="25">&gt;NAME</text>
<text x="-3.81" y="-10.16" size="1.27" layer="27">&gt;VALUE</text>
<smd name="7" x="-2.54" y="-5.08" dx="2.54" dy="1.27" layer="1"/>
<smd name="9" x="-2.54" y="-7.62" dx="2.54" dy="1.27" layer="1"/>
<smd name="8" x="2.92" y="-5.08" dx="2.54" dy="1.27" layer="1"/>
<smd name="10" x="2.92" y="-7.62" dx="2.54" dy="1.27" layer="1"/>
</package>
<package name="2X03SMD">
<smd name="1" x="-2.54" y="2.54" dx="2.54" dy="1.27" layer="1"/>
<smd name="3" x="-2.54" y="0" dx="2.54" dy="1.27" layer="1"/>
<smd name="5" x="-2.54" y="-2.54" dx="2.54" dy="1.27" layer="1"/>
<smd name="2" x="2.92" y="2.54" dx="2.54" dy="1.27" layer="1"/>
<smd name="4" x="2.92" y="0" dx="2.54" dy="1.27" layer="1"/>
<smd name="6" x="2.92" y="-2.54" dx="2.54" dy="1.27" layer="1"/>
<text x="-5.08" y="2.54" size="1.27" layer="27">1</text>
<text x="-3.81" y="3.81" size="1.27" layer="25">&gt;NAME</text>
<text x="-3.81" y="-5.08" size="1.27" layer="27">&gt;VALUE</text>
</package>
</packages>
<symbols>
<symbol name="R-US">
<wire x1="-2.54" y1="0" x2="-2.159" y2="1.016" width="0.2032" layer="94"/>
<wire x1="-2.159" y1="1.016" x2="-1.524" y2="-1.016" width="0.2032" layer="94"/>
<wire x1="-1.524" y1="-1.016" x2="-0.889" y2="1.016" width="0.2032" layer="94"/>
<wire x1="-0.889" y1="1.016" x2="-0.254" y2="-1.016" width="0.2032" layer="94"/>
<wire x1="-0.254" y1="-1.016" x2="0.381" y2="1.016" width="0.2032" layer="94"/>
<wire x1="0.381" y1="1.016" x2="1.016" y2="-1.016" width="0.2032" layer="94"/>
<wire x1="1.016" y1="-1.016" x2="1.651" y2="1.016" width="0.2032" layer="94"/>
<wire x1="1.651" y1="1.016" x2="2.286" y2="-1.016" width="0.2032" layer="94"/>
<wire x1="2.286" y1="-1.016" x2="2.54" y2="0" width="0.2032" layer="94"/>
<text x="-3.81" y="1.4986" size="1.778" layer="95">&gt;NAME</text>
<text x="-3.81" y="-3.302" size="1.778" layer="96">&gt;VALUE</text>
<pin name="2" x="5.08" y="0" visible="off" length="short" direction="pas" swaplevel="1" rot="R180"/>
<pin name="1" x="-5.08" y="0" visible="off" length="short" direction="pas" swaplevel="1"/>
</symbol>
<symbol name="PINH2X2">
<wire x1="-8.89" y1="-2.54" x2="6.35" y2="-2.54" width="0.4064" layer="94"/>
<wire x1="6.35" y1="-2.54" x2="6.35" y2="5.08" width="0.4064" layer="94"/>
<wire x1="6.35" y1="5.08" x2="-8.89" y2="5.08" width="0.4064" layer="94"/>
<wire x1="-8.89" y1="5.08" x2="-8.89" y2="-2.54" width="0.4064" layer="94"/>
<text x="-8.89" y="5.715" size="1.778" layer="95">&gt;NAME</text>
<text x="-8.89" y="-5.08" size="1.778" layer="96">&gt;VALUE</text>
<pin name="1" x="-5.08" y="2.54" visible="pad" length="short" direction="pas" function="dot"/>
<pin name="2" x="2.54" y="2.54" visible="pad" length="short" direction="pas" function="dot" rot="R180"/>
<pin name="3" x="-5.08" y="0" visible="pad" length="short" direction="pas" function="dot"/>
<pin name="4" x="2.54" y="0" visible="pad" length="short" direction="pas" function="dot" rot="R180"/>
</symbol>
<symbol name="PINH2X5">
<wire x1="-8.89" y1="-10.16" x2="6.35" y2="-10.16" width="0.4064" layer="94"/>
<wire x1="6.35" y1="-10.16" x2="6.35" y2="5.08" width="0.4064" layer="94"/>
<wire x1="6.35" y1="5.08" x2="-8.89" y2="5.08" width="0.4064" layer="94"/>
<wire x1="-8.89" y1="5.08" x2="-8.89" y2="-10.16" width="0.4064" layer="94"/>
<text x="-8.89" y="5.715" size="1.778" layer="95">&gt;NAME</text>
<text x="-8.89" y="-12.7" size="1.778" layer="96">&gt;VALUE</text>
<pin name="1" x="-5.08" y="2.54" visible="pad" length="short" direction="pas" function="dot"/>
<pin name="10" x="2.54" y="-7.62" visible="pad" length="short" direction="pas" function="dot" rot="R180"/>
<pin name="3" x="-5.08" y="0" visible="pad" length="short" direction="pas" function="dot"/>
<pin name="9" x="-5.08" y="-7.62" visible="pad" length="short" direction="pas" function="dot"/>
<pin name="5" x="-5.08" y="-2.54" visible="pad" length="short" direction="pas" function="dot"/>
<pin name="7" x="-5.08" y="-5.08" visible="pad" length="short" direction="pas" function="dot"/>
<pin name="8" x="2.54" y="-5.08" visible="pad" length="short" direction="pas" function="dot" rot="R180"/>
<pin name="6" x="2.54" y="-2.54" visible="pad" length="short" direction="pas" function="dot" rot="R180"/>
<pin name="4" x="2.54" y="0" visible="pad" length="short" direction="pas" function="dot" rot="R180"/>
<pin name="2" x="2.54" y="2.54" visible="pad" length="short" direction="pas" function="dot" rot="R180"/>
</symbol>
<symbol name="PINH2X3">
<wire x1="-6.35" y1="-5.08" x2="8.89" y2="-5.08" width="0.4064" layer="94"/>
<wire x1="8.89" y1="-5.08" x2="8.89" y2="5.08" width="0.4064" layer="94"/>
<wire x1="8.89" y1="5.08" x2="-6.35" y2="5.08" width="0.4064" layer="94"/>
<wire x1="-6.35" y1="5.08" x2="-6.35" y2="-5.08" width="0.4064" layer="94"/>
<text x="-6.35" y="5.715" size="1.778" layer="95">&gt;NAME</text>
<text x="-6.35" y="-7.62" size="1.778" layer="96">&gt;VALUE</text>
<pin name="1" x="-2.54" y="2.54" visible="pad" length="short" direction="pas" function="dot"/>
<pin name="2" x="5.08" y="2.54" visible="pad" length="short" direction="pas" function="dot" rot="R180"/>
<pin name="3" x="-2.54" y="0" visible="pad" length="short" direction="pas" function="dot"/>
<pin name="4" x="5.08" y="0" visible="pad" length="short" direction="pas" function="dot" rot="R180"/>
<pin name="5" x="-2.54" y="-2.54" visible="pad" length="short" direction="pas" function="dot"/>
<pin name="6" x="5.08" y="-2.54" visible="pad" length="short" direction="pas" function="dot" rot="R180"/>
</symbol>
</symbols>
<devicesets>
<deviceset name="RES-US" prefix="R" uservalue="yes">
<description>&lt;b&gt;Resistor (US Symbol)&lt;/b&gt;
&lt;p&gt;
Variants with postfix FAB are widened to allow the routing of internal traces</description>
<gates>
<gate name="G$1" symbol="R-US" x="0" y="0"/>
</gates>
<devices>
<device name="1206" package="R1206">
<connects>
<connect gate="G$1" pin="1" pad="1"/>
<connect gate="G$1" pin="2" pad="2"/>
</connects>
<technologies>
<technology name=""/>
</technologies>
</device>
<device name="1206W" package="R1206W">
<connects>
<connect gate="G$1" pin="1" pad="1"/>
<connect gate="G$1" pin="2" pad="2"/>
</connects>
<technologies>
<technology name=""/>
</technologies>
</device>
<device name="1206FAB" package="R1206FAB">
<connects>
<connect gate="G$1" pin="1" pad="1"/>
<connect gate="G$1" pin="2" pad="2"/>
</connects>
<technologies>
<technology name=""/>
</technologies>
</device>
</devices>
</deviceset>
<deviceset name="PINHD-2X2-SMD">
<gates>
<gate name="G$1" symbol="PINH2X2" x="2.54" y="0"/>
</gates>
<devices>
<device name="" package="2X02SMD">
<connects>
<connect gate="G$1" pin="1" pad="1"/>
<connect gate="G$1" pin="2" pad="2"/>
<connect gate="G$1" pin="3" pad="3"/>
<connect gate="G$1" pin="4" pad="4"/>
</connects>
<technologies>
<technology name=""/>
</technologies>
</device>
</devices>
</deviceset>
<deviceset name="PINHD-2X5-SMD">
<gates>
<gate name="G$1" symbol="PINH2X5" x="2.54" y="2.54"/>
</gates>
<devices>
<device name="" package="2X05SMD">
<connects>
<connect gate="G$1" pin="1" pad="1"/>
<connect gate="G$1" pin="10" pad="10"/>
<connect gate="G$1" pin="2" pad="2"/>
<connect gate="G$1" pin="3" pad="3"/>
<connect gate="G$1" pin="4" pad="4"/>
<connect gate="G$1" pin="5" pad="5"/>
<connect gate="G$1" pin="6" pad="6"/>
<connect gate="G$1" pin="7" pad="7"/>
<connect gate="G$1" pin="8" pad="8"/>
<connect gate="G$1" pin="9" pad="9"/>
</connects>
<technologies>
<technology name=""/>
</technologies>
</device>
</devices>
</deviceset>
<deviceset name="PINHD-2X3-SMD" prefix="JP" uservalue="yes">
<description>&lt;b&gt;PIN HEADER&lt;/b&gt;</description>
<gates>
<gate name="A" symbol="PINH2X3" x="0" y="0"/>
</gates>
<devices>
<device name="" package="2X03SMD">
<connects>
<connect gate="A" pin="1" pad="1"/>
<connect gate="A" pin="2" pad="2"/>
<connect gate="A" pin="3" pad="3"/>
<connect gate="A" pin="4" pad="4"/>
<connect gate="A" pin="5" pad="5"/>
<connect gate="A" pin="6" pad="6"/>
</connects>
<technologies>
<technology name=""/>
</technologies>
</device>
</devices>
</deviceset>
</devicesets>
</library>
<library name="supply1" urn="urn:adsk.eagle:library:371">
<description>&lt;b&gt;Supply Symbols&lt;/b&gt;&lt;p&gt;
 GND, VCC, 0V, +5V, -5V, etc.&lt;p&gt;
 Please keep in mind, that these devices are necessary for the
 automatic wiring of the supply signals.&lt;p&gt;
 The pin name defined in the symbol is identical to the net which is to be wired automatically.&lt;p&gt;
 In this library the device names are the same as the pin names of the symbols, therefore the correct signal names appear next to the supply symbols in the schematic.&lt;p&gt;
 &lt;author&gt;Created by librarian@cadsoft.de&lt;/author&gt;</description>
<packages>
</packages>
<symbols>
<symbol name="GND" urn="urn:adsk.eagle:symbol:26925/1" library_version="1">
<wire x1="-1.905" y1="0" x2="1.905" y2="0" width="0.254" layer="94"/>
<text x="-2.54" y="-2.54" size="1.778" layer="96">&gt;VALUE</text>
<pin name="GND" x="0" y="2.54" visible="off" length="short" direction="sup" rot="R270"/>
</symbol>
<symbol name="+5V" urn="urn:adsk.eagle:symbol:26929/1" library_version="1">
<wire x1="1.27" y1="-1.905" x2="0" y2="0" width="0.254" layer="94"/>
<wire x1="0" y1="0" x2="-1.27" y2="-1.905" width="0.254" layer="94"/>
<text x="-2.54" y="-5.08" size="1.778" layer="96" rot="R90">&gt;VALUE</text>
<pin name="+5V" x="0" y="-2.54" visible="off" length="short" direction="sup" rot="R90"/>
</symbol>
</symbols>
<devicesets>
<deviceset name="GND" urn="urn:adsk.eagle:component:26954/1" prefix="GND" library_version="1">
<description>&lt;b&gt;SUPPLY SYMBOL&lt;/b&gt;</description>
<gates>
<gate name="1" symbol="GND" x="0" y="0"/>
</gates>
<devices>
<device name="">
<technologies>
<technology name=""/>
</technologies>
</device>
</devices>
</deviceset>
<deviceset name="+5V" urn="urn:adsk.eagle:component:26963/1" prefix="P+" library_version="1">
<description>&lt;b&gt;SUPPLY SYMBOL&lt;/b&gt;</description>
<gates>
<gate name="1" symbol="+5V" x="0" y="0"/>
</gates>
<devices>
<device name="">
<technologies>
<technology name=""/>
</technologies>
</device>
</devices>
</deviceset>
</devicesets>
</library>
</libraries>
<attributes>
</attributes>
<variantdefs>
</variantdefs>
<classes>
<class number="0" name="default" width="0" drill="0">
</class>
</classes>
<parts>
<part name="R1" library="fab" deviceset="RES-US" device="1206FAB"/>
<part name="R2" library="fab" deviceset="RES-US" device="1206FAB"/>
<part name="R3" library="fab" deviceset="RES-US" device="1206FAB"/>
<part name="R4" library="fab" deviceset="RES-US" device="1206FAB"/>
<part name="R5" library="fab" deviceset="RES-US" device="1206FAB"/>
<part name="R6" library="fab" deviceset="RES-US" device="1206FAB"/>
<part name="U$1" library="fab" deviceset="PINHD-2X2-SMD" device=""/>
<part name="U$2" library="fab" deviceset="PINHD-2X2-SMD" device=""/>
<part name="GND1" library="supply1" library_urn="urn:adsk.eagle:library:371" deviceset="GND" device=""/>
<part name="P+1" library="supply1" library_urn="urn:adsk.eagle:library:371" deviceset="+5V" device=""/>
<part name="U$4" library="fab" deviceset="PINHD-2X5-SMD" device=""/>
<part name="JP1" library="fab" deviceset="PINHD-2X3-SMD" device=""/>
<part name="U$3" library="fab" deviceset="PINHD-2X2-SMD" device=""/>
</parts>
<sheets>
<sheet>
<plain>
</plain>
<instances>
<instance part="R1" gate="G$1" x="17.78" y="33.02" smashed="yes">
<attribute name="NAME" x="13.97" y="34.5186" size="1.778" layer="95"/>
<attribute name="VALUE" x="13.97" y="29.718" size="1.778" layer="96"/>
</instance>
<instance part="R2" gate="G$1" x="17.78" y="27.94" smashed="yes">
<attribute name="NAME" x="13.97" y="29.4386" size="1.778" layer="95"/>
<attribute name="VALUE" x="13.97" y="24.638" size="1.778" layer="96"/>
</instance>
<instance part="R3" gate="G$1" x="17.78" y="22.86" smashed="yes">
<attribute name="NAME" x="13.97" y="24.3586" size="1.778" layer="95"/>
<attribute name="VALUE" x="13.97" y="19.558" size="1.778" layer="96"/>
</instance>
<instance part="R4" gate="G$1" x="17.78" y="17.78" smashed="yes">
<attribute name="NAME" x="13.97" y="19.2786" size="1.778" layer="95"/>
<attribute name="VALUE" x="13.97" y="14.478" size="1.778" layer="96"/>
</instance>
<instance part="R5" gate="G$1" x="17.78" y="12.7" smashed="yes">
<attribute name="NAME" x="13.97" y="14.1986" size="1.778" layer="95"/>
<attribute name="VALUE" x="13.97" y="9.398" size="1.778" layer="96"/>
</instance>
<instance part="R6" gate="G$1" x="17.78" y="7.62" smashed="yes">
<attribute name="NAME" x="13.97" y="9.1186" size="1.778" layer="95"/>
<attribute name="VALUE" x="13.97" y="4.318" size="1.778" layer="96"/>
</instance>
<instance part="U$1" gate="G$1" x="35.56" y="30.48" smashed="yes"/>
<instance part="U$2" gate="G$1" x="35.56" y="5.08" smashed="yes">
<attribute name="VALUE" x="26.67" y="0" size="1.778" layer="96"/>
</instance>
<instance part="GND1" gate="1" x="12.7" y="0" smashed="yes">
<attribute name="VALUE" x="10.16" y="-2.54" size="1.778" layer="96"/>
</instance>
<instance part="P+1" gate="1" x="10.16" y="40.64" smashed="yes">
<attribute name="VALUE" x="7.62" y="35.56" size="1.778" layer="96" rot="R90"/>
</instance>
<instance part="U$4" gate="G$1" x="2.54" y="25.4" smashed="yes">
<attribute name="NAME" x="-6.35" y="31.115" size="1.778" layer="95"/>
<attribute name="VALUE" x="-6.35" y="12.7" size="1.778" layer="96"/>
</instance>
<instance part="JP1" gate="A" x="0" y="2.54" smashed="yes">
<attribute name="NAME" x="-6.35" y="8.255" size="1.778" layer="95"/>
<attribute name="VALUE" x="-6.35" y="-5.08" size="1.778" layer="96"/>
</instance>
<instance part="U$3" gate="G$1" x="35.56" y="17.78" smashed="yes">
<attribute name="NAME" x="26.67" y="23.495" size="1.778" layer="95"/>
<attribute name="VALUE" x="26.67" y="12.7" size="1.778" layer="96"/>
</instance>
</instances>
<busses>
</busses>
<nets>
<net name="GND" class="0">
<segment>
<pinref part="R1" gate="G$1" pin="1"/>
<pinref part="GND1" gate="1" pin="GND"/>
<wire x1="12.7" y1="33.02" x2="12.7" y2="27.94" width="0.1524" layer="91"/>
<pinref part="R2" gate="G$1" pin="1"/>
<wire x1="12.7" y1="27.94" x2="12.7" y2="22.86" width="0.1524" layer="91"/>
<junction x="12.7" y="27.94"/>
<pinref part="R3" gate="G$1" pin="1"/>
<wire x1="12.7" y1="22.86" x2="12.7" y2="17.78" width="0.1524" layer="91"/>
<junction x="12.7" y="22.86"/>
<pinref part="R4" gate="G$1" pin="1"/>
<wire x1="12.7" y1="17.78" x2="12.7" y2="12.7" width="0.1524" layer="91"/>
<junction x="12.7" y="17.78"/>
<pinref part="R5" gate="G$1" pin="1"/>
<wire x1="12.7" y1="12.7" x2="12.7" y2="7.62" width="0.1524" layer="91"/>
<junction x="12.7" y="12.7"/>
<pinref part="R6" gate="G$1" pin="1"/>
<wire x1="12.7" y1="7.62" x2="12.7" y2="5.08" width="0.1524" layer="91"/>
<junction x="12.7" y="7.62"/>
<pinref part="JP1" gate="A" pin="2"/>
<wire x1="12.7" y1="5.08" x2="12.7" y2="2.54" width="0.1524" layer="91"/>
<wire x1="12.7" y1="5.08" x2="7.62" y2="5.08" width="0.1524" layer="91"/>
<junction x="12.7" y="5.08"/>
<pinref part="JP1" gate="A" pin="6"/>
<wire x1="7.62" y1="5.08" x2="5.08" y2="5.08" width="0.1524" layer="91"/>
<wire x1="5.08" y1="0" x2="5.08" y2="2.54" width="0.1524" layer="91"/>
<junction x="5.08" y="5.08"/>
<pinref part="JP1" gate="A" pin="4"/>
<wire x1="5.08" y1="2.54" x2="5.08" y2="5.08" width="0.1524" layer="91"/>
<junction x="5.08" y="2.54"/>
<wire x1="7.62" y1="5.08" x2="7.62" y2="10.16" width="0.1524" layer="91"/>
<junction x="7.62" y="5.08"/>
<wire x1="7.62" y1="10.16" x2="-2.54" y2="10.16" width="0.1524" layer="91"/>
<pinref part="JP1" gate="A" pin="5"/>
<wire x1="-2.54" y1="0" x2="-2.54" y2="2.54" width="0.1524" layer="91"/>
<pinref part="JP1" gate="A" pin="1"/>
<wire x1="-2.54" y1="2.54" x2="-2.54" y2="5.08" width="0.1524" layer="91"/>
<wire x1="-2.54" y1="5.08" x2="-2.54" y2="10.16" width="0.1524" layer="91"/>
<junction x="-2.54" y="5.08"/>
<pinref part="JP1" gate="A" pin="3"/>
<junction x="-2.54" y="2.54"/>
<wire x1="5.08" y1="0" x2="5.08" y2="-7.62" width="0.1524" layer="91"/>
<junction x="5.08" y="0"/>
<wire x1="5.08" y1="-7.62" x2="30.48" y2="-7.62" width="0.1524" layer="91"/>
<pinref part="U$2" gate="G$1" pin="3"/>
<wire x1="30.48" y1="-7.62" x2="30.48" y2="5.08" width="0.1524" layer="91"/>
<wire x1="30.48" y1="-7.62" x2="38.1" y2="-7.62" width="0.1524" layer="91"/>
<junction x="30.48" y="-7.62"/>
<pinref part="U$2" gate="G$1" pin="4"/>
<wire x1="38.1" y1="-7.62" x2="38.1" y2="5.08" width="0.1524" layer="91"/>
</segment>
</net>
<net name="N$1" class="0">
<segment>
<pinref part="R2" gate="G$1" pin="2"/>
<wire x1="22.86" y1="27.94" x2="25.4" y2="27.94" width="0.1524" layer="91"/>
<wire x1="25.4" y1="27.94" x2="25.4" y2="33.02" width="0.1524" layer="91"/>
<pinref part="U$1" gate="G$1" pin="1"/>
<wire x1="25.4" y1="33.02" x2="30.48" y2="33.02" width="0.1524" layer="91"/>
<pinref part="U$1" gate="G$1" pin="3"/>
<wire x1="30.48" y1="33.02" x2="30.48" y2="30.48" width="0.1524" layer="91"/>
<junction x="30.48" y="33.02"/>
</segment>
</net>
<net name="N$2" class="0">
<segment>
<pinref part="R1" gate="G$1" pin="2"/>
<wire x1="22.86" y1="33.02" x2="22.86" y2="38.1" width="0.1524" layer="91"/>
<wire x1="22.86" y1="38.1" x2="38.1" y2="38.1" width="0.1524" layer="91"/>
<pinref part="U$1" gate="G$1" pin="2"/>
<wire x1="38.1" y1="38.1" x2="38.1" y2="33.02" width="0.1524" layer="91"/>
<pinref part="U$1" gate="G$1" pin="4"/>
<wire x1="38.1" y1="33.02" x2="38.1" y2="30.48" width="0.1524" layer="91"/>
<junction x="38.1" y="33.02"/>
</segment>
</net>
<net name="+5V" class="0">
<segment>
<pinref part="P+1" gate="1" pin="+5V"/>
<wire x1="10.16" y1="38.1" x2="10.16" y2="33.02" width="0.1524" layer="91"/>
<wire x1="10.16" y1="33.02" x2="5.08" y2="33.02" width="0.1524" layer="91"/>
<pinref part="U$4" gate="G$1" pin="10"/>
<wire x1="5.08" y1="33.02" x2="5.08" y2="27.94" width="0.1524" layer="91"/>
<pinref part="U$4" gate="G$1" pin="8"/>
<wire x1="5.08" y1="27.94" x2="5.08" y2="25.4" width="0.1524" layer="91"/>
<wire x1="5.08" y1="25.4" x2="5.08" y2="22.86" width="0.1524" layer="91"/>
<wire x1="5.08" y1="22.86" x2="5.08" y2="20.32" width="0.1524" layer="91"/>
<wire x1="5.08" y1="20.32" x2="5.08" y2="17.78" width="0.1524" layer="91"/>
<junction x="5.08" y="20.32"/>
<pinref part="U$4" gate="G$1" pin="6"/>
<junction x="5.08" y="22.86"/>
<pinref part="U$4" gate="G$1" pin="4"/>
<junction x="5.08" y="25.4"/>
<pinref part="U$4" gate="G$1" pin="2"/>
<junction x="5.08" y="27.94"/>
<wire x1="5.08" y1="33.02" x2="-2.54" y2="33.02" width="0.1524" layer="91"/>
<junction x="5.08" y="33.02"/>
<pinref part="U$4" gate="G$1" pin="9"/>
<wire x1="-2.54" y1="33.02" x2="-2.54" y2="27.94" width="0.1524" layer="91"/>
<pinref part="U$4" gate="G$1" pin="1"/>
<wire x1="-2.54" y1="27.94" x2="-2.54" y2="25.4" width="0.1524" layer="91"/>
<junction x="-2.54" y="27.94"/>
<pinref part="U$4" gate="G$1" pin="3"/>
<wire x1="-2.54" y1="25.4" x2="-2.54" y2="22.86" width="0.1524" layer="91"/>
<junction x="-2.54" y="25.4"/>
<pinref part="U$4" gate="G$1" pin="5"/>
<wire x1="-2.54" y1="22.86" x2="-2.54" y2="20.32" width="0.1524" layer="91"/>
<junction x="-2.54" y="22.86"/>
<pinref part="U$4" gate="G$1" pin="7"/>
<wire x1="-2.54" y1="20.32" x2="-2.54" y2="17.78" width="0.1524" layer="91"/>
<junction x="-2.54" y="20.32"/>
</segment>
</net>
<net name="N$3" class="0">
<segment>
<pinref part="R3" gate="G$1" pin="2"/>
<wire x1="22.86" y1="22.86" x2="22.86" y2="25.4" width="0.1524" layer="91"/>
<wire x1="22.86" y1="25.4" x2="38.1" y2="25.4" width="0.1524" layer="91"/>
<pinref part="U$3" gate="G$1" pin="2"/>
<wire x1="38.1" y1="25.4" x2="38.1" y2="20.32" width="0.1524" layer="91"/>
<pinref part="U$3" gate="G$1" pin="4"/>
<wire x1="38.1" y1="20.32" x2="38.1" y2="17.78" width="0.1524" layer="91"/>
<junction x="38.1" y="20.32"/>
</segment>
</net>
<net name="N$4" class="0">
<segment>
<pinref part="R4" gate="G$1" pin="2"/>
<wire x1="22.86" y1="17.78" x2="22.86" y2="20.32" width="0.1524" layer="91"/>
<pinref part="U$3" gate="G$1" pin="1"/>
<wire x1="22.86" y1="20.32" x2="30.48" y2="20.32" width="0.1524" layer="91"/>
<pinref part="U$3" gate="G$1" pin="3"/>
<wire x1="30.48" y1="20.32" x2="30.48" y2="17.78" width="0.1524" layer="91"/>
<junction x="30.48" y="20.32"/>
</segment>
</net>
<net name="N$5" class="0">
<segment>
<pinref part="R5" gate="G$1" pin="2"/>
<wire x1="22.86" y1="12.7" x2="38.1" y2="12.7" width="0.1524" layer="91"/>
<pinref part="U$2" gate="G$1" pin="2"/>
<wire x1="38.1" y1="12.7" x2="38.1" y2="7.62" width="0.1524" layer="91"/>
</segment>
</net>
<net name="N$6" class="0">
<segment>
<pinref part="R6" gate="G$1" pin="2"/>
<pinref part="U$2" gate="G$1" pin="1"/>
<wire x1="22.86" y1="7.62" x2="30.48" y2="7.62" width="0.1524" layer="91"/>
</segment>
</net>
</nets>
</sheet>
</sheets>
</schematic>
</drawing>
<compatibility>
<note version="8.2" severity="warning">
Since Version 8.2, EAGLE supports online libraries. The ids
of those online libraries will not be understood (or retained)
with this version.
</note>
<note version="8.3" severity="warning">
Since Version 8.3, EAGLE supports URNs for individual library
assets (packages, symbols, and devices). The URNs of those assets
will not be understood (or retained) with this version.
</note>
</compatibility>
</eagle>
