<?xml version="1.0" encoding="utf-8"?>
<!DOCTYPE eagle SYSTEM "eagle.dtd">
<eagle version="9.3.0">
<drawing>
<settings>
<setting alwaysvectorfont="no"/>
<setting verticaltext="up"/>
</settings>
<grid distance="0.1" unitdist="inch" unit="inch" style="lines" multiple="1" display="no" altdistance="0.01" altunitdist="inch" altunit="inch"/>
<layers>
<layer number="1" name="Top" color="4" fill="1" visible="no" active="no"/>
<layer number="2" name="Route2" color="1" fill="3" visible="no" active="no"/>
<layer number="3" name="Route3" color="4" fill="3" visible="no" active="no"/>
<layer number="4" name="Route4" color="1" fill="4" visible="no" active="no"/>
<layer number="5" name="Route5" color="4" fill="4" visible="no" active="no"/>
<layer number="6" name="Route6" color="1" fill="8" visible="no" active="no"/>
<layer number="7" name="Route7" color="4" fill="8" visible="no" active="no"/>
<layer number="8" name="Route8" color="1" fill="2" visible="no" active="no"/>
<layer number="9" name="Route9" color="4" fill="2" visible="no" active="no"/>
<layer number="10" name="Route10" color="1" fill="7" visible="no" active="no"/>
<layer number="11" name="Route11" color="4" fill="7" visible="no" active="no"/>
<layer number="12" name="Route12" color="1" fill="5" visible="no" active="no"/>
<layer number="13" name="Route13" color="4" fill="5" visible="no" active="no"/>
<layer number="14" name="Route14" color="1" fill="6" visible="no" active="no"/>
<layer number="15" name="Route15" color="4" fill="6" visible="no" active="no"/>
<layer number="16" name="Bottom" color="1" fill="1" visible="no" active="no"/>
<layer number="17" name="Pads" color="2" fill="1" visible="no" active="no"/>
<layer number="18" name="Vias" color="2" fill="1" visible="no" active="no"/>
<layer number="19" name="Unrouted" color="6" fill="1" visible="no" active="no"/>
<layer number="20" name="Dimension" color="15" fill="1" visible="no" active="no"/>
<layer number="21" name="tPlace" color="14" fill="1" visible="no" active="no"/>
<layer number="22" name="bPlace" color="7" fill="1" visible="no" active="no"/>
<layer number="23" name="tOrigins" color="15" fill="1" visible="no" active="no"/>
<layer number="24" name="bOrigins" color="15" fill="1" visible="no" active="no"/>
<layer number="25" name="tNames" color="7" fill="1" visible="no" active="no"/>
<layer number="26" name="bNames" color="7" fill="1" visible="no" active="no"/>
<layer number="27" name="tValues" color="7" fill="1" visible="no" active="no"/>
<layer number="28" name="bValues" color="7" fill="1" visible="no" active="no"/>
<layer number="29" name="tStop" color="7" fill="3" visible="no" active="no"/>
<layer number="30" name="bStop" color="7" fill="6" visible="no" active="no"/>
<layer number="31" name="tCream" color="7" fill="4" visible="no" active="no"/>
<layer number="32" name="bCream" color="7" fill="5" visible="no" active="no"/>
<layer number="33" name="tFinish" color="6" fill="3" visible="no" active="no"/>
<layer number="34" name="bFinish" color="6" fill="6" visible="no" active="no"/>
<layer number="35" name="tGlue" color="7" fill="4" visible="no" active="no"/>
<layer number="36" name="bGlue" color="7" fill="5" visible="no" active="no"/>
<layer number="37" name="tTest" color="7" fill="1" visible="no" active="no"/>
<layer number="38" name="bTest" color="7" fill="1" visible="no" active="no"/>
<layer number="39" name="tKeepout" color="4" fill="11" visible="no" active="no"/>
<layer number="40" name="bKeepout" color="1" fill="11" visible="no" active="no"/>
<layer number="41" name="tRestrict" color="4" fill="10" visible="no" active="no"/>
<layer number="42" name="bRestrict" color="1" fill="10" visible="no" active="no"/>
<layer number="43" name="vRestrict" color="2" fill="10" visible="no" active="no"/>
<layer number="44" name="Drills" color="7" fill="1" visible="no" active="no"/>
<layer number="45" name="Holes" color="7" fill="1" visible="no" active="no"/>
<layer number="46" name="Milling" color="3" fill="1" visible="no" active="no"/>
<layer number="47" name="Measures" color="7" fill="1" visible="no" active="no"/>
<layer number="48" name="Document" color="7" fill="1" visible="no" active="no"/>
<layer number="49" name="Reference" color="7" fill="1" visible="no" active="no"/>
<layer number="50" name="dxf" color="7" fill="1" visible="no" active="no"/>
<layer number="51" name="tDocu" color="7" fill="1" visible="no" active="no"/>
<layer number="52" name="bDocu" color="7" fill="1" visible="no" active="no"/>
<layer number="53" name="tGND_GNDA" color="7" fill="9" visible="no" active="no"/>
<layer number="54" name="bGND_GNDA" color="1" fill="9" visible="no" active="no"/>
<layer number="56" name="wert" color="7" fill="1" visible="no" active="no"/>
<layer number="57" name="tCAD" color="7" fill="1" visible="no" active="no"/>
<layer number="59" name="tCarbon" color="7" fill="1" visible="no" active="no"/>
<layer number="60" name="bCarbon" color="7" fill="1" visible="no" active="no"/>
<layer number="88" name="SimResults" color="9" fill="1" visible="yes" active="yes"/>
<layer number="89" name="SimProbes" color="9" fill="1" visible="yes" active="yes"/>
<layer number="90" name="Modules" color="5" fill="1" visible="yes" active="yes"/>
<layer number="91" name="Nets" color="2" fill="1" visible="yes" active="yes"/>
<layer number="92" name="Busses" color="1" fill="1" visible="yes" active="yes"/>
<layer number="93" name="Pins" color="2" fill="1" visible="no" active="yes"/>
<layer number="94" name="Symbols" color="4" fill="1" visible="yes" active="yes"/>
<layer number="95" name="Names" color="7" fill="1" visible="yes" active="yes"/>
<layer number="96" name="Values" color="7" fill="1" visible="yes" active="yes"/>
<layer number="97" name="Info" color="7" fill="1" visible="yes" active="yes"/>
<layer number="98" name="Guide" color="6" fill="1" visible="yes" active="yes"/>
<layer number="99" name="SpiceOrder" color="7" fill="1" visible="no" active="no"/>
<layer number="100" name="Muster" color="7" fill="1" visible="no" active="no"/>
<layer number="101" name="Patch_Top" color="12" fill="4" visible="no" active="yes"/>
<layer number="102" name="Vscore" color="7" fill="1" visible="no" active="yes"/>
<layer number="103" name="fp3" color="7" fill="1" visible="no" active="yes"/>
<layer number="104" name="Name" color="7" fill="1" visible="no" active="yes"/>
<layer number="105" name="Beschreib" color="9" fill="1" visible="no" active="yes"/>
<layer number="106" name="BGA-Top" color="4" fill="1" visible="no" active="yes"/>
<layer number="107" name="BD-Top" color="5" fill="1" visible="no" active="yes"/>
<layer number="108" name="fp8" color="7" fill="1" visible="no" active="yes"/>
<layer number="109" name="fp9" color="7" fill="1" visible="no" active="yes"/>
<layer number="110" name="fp0" color="7" fill="1" visible="no" active="yes"/>
<layer number="111" name="LPC17xx" color="7" fill="1" visible="no" active="yes"/>
<layer number="112" name="tSilk" color="7" fill="1" visible="no" active="yes"/>
<layer number="113" name="ReferenceLS" color="7" fill="1" visible="no" active="no"/>
<layer number="114" name="Badge_Outline" color="7" fill="1" visible="yes" active="yes"/>
<layer number="115" name="ReferenceISLANDS" color="7" fill="1" visible="yes" active="yes"/>
<layer number="116" name="Patch_BOT" color="9" fill="4" visible="no" active="yes"/>
<layer number="118" name="Rect_Pads" color="7" fill="1" visible="no" active="no"/>
<layer number="121" name="_tsilk" color="7" fill="1" visible="no" active="yes"/>
<layer number="122" name="_bsilk" color="7" fill="1" visible="no" active="yes"/>
<layer number="123" name="tTestmark" color="7" fill="1" visible="no" active="yes"/>
<layer number="124" name="bTestmark" color="7" fill="1" visible="no" active="yes"/>
<layer number="125" name="_tNames" color="7" fill="1" visible="no" active="yes"/>
<layer number="126" name="_bNames" color="7" fill="1" visible="no" active="yes"/>
<layer number="127" name="_tValues" color="7" fill="1" visible="no" active="yes"/>
<layer number="128" name="_bValues" color="7" fill="1" visible="no" active="yes"/>
<layer number="129" name="Mask" color="7" fill="1" visible="yes" active="yes"/>
<layer number="131" name="tAdjust" color="7" fill="1" visible="no" active="yes"/>
<layer number="132" name="bAdjust" color="7" fill="1" visible="no" active="yes"/>
<layer number="144" name="Drill_legend" color="7" fill="1" visible="no" active="yes"/>
<layer number="150" name="Notes" color="7" fill="1" visible="no" active="yes"/>
<layer number="151" name="HeatSink" color="7" fill="1" visible="no" active="yes"/>
<layer number="152" name="_bDocu" color="7" fill="1" visible="no" active="yes"/>
<layer number="153" name="FabDoc1" color="6" fill="1" visible="no" active="no"/>
<layer number="154" name="FabDoc2" color="2" fill="1" visible="no" active="no"/>
<layer number="155" name="FabDoc3" color="7" fill="15" visible="no" active="no"/>
<layer number="199" name="Contour" color="7" fill="1" visible="no" active="yes"/>
<layer number="200" name="200bmp" color="1" fill="10" visible="no" active="yes"/>
<layer number="201" name="201bmp" color="2" fill="1" visible="no" active="no"/>
<layer number="202" name="202bmp" color="3" fill="1" visible="no" active="no"/>
<layer number="203" name="203bmp" color="4" fill="10" visible="no" active="yes"/>
<layer number="204" name="204bmp" color="5" fill="10" visible="no" active="yes"/>
<layer number="205" name="205bmp" color="6" fill="10" visible="no" active="yes"/>
<layer number="206" name="206bmp" color="7" fill="10" visible="no" active="yes"/>
<layer number="207" name="207bmp" color="8" fill="10" visible="no" active="yes"/>
<layer number="208" name="208bmp" color="9" fill="10" visible="no" active="yes"/>
<layer number="209" name="209bmp" color="7" fill="1" visible="no" active="yes"/>
<layer number="210" name="210bmp" color="7" fill="1" visible="no" active="yes"/>
<layer number="211" name="211bmp" color="7" fill="1" visible="no" active="yes"/>
<layer number="212" name="212bmp" color="7" fill="1" visible="no" active="yes"/>
<layer number="213" name="213bmp" color="7" fill="1" visible="no" active="yes"/>
<layer number="214" name="214bmp" color="7" fill="1" visible="no" active="yes"/>
<layer number="215" name="215bmp" color="7" fill="1" visible="no" active="yes"/>
<layer number="216" name="216bmp" color="7" fill="1" visible="no" active="yes"/>
<layer number="217" name="217bmp" color="18" fill="1" visible="no" active="no"/>
<layer number="218" name="218bmp" color="19" fill="1" visible="no" active="no"/>
<layer number="219" name="219bmp" color="20" fill="1" visible="no" active="no"/>
<layer number="220" name="220bmp" color="21" fill="1" visible="no" active="no"/>
<layer number="221" name="221bmp" color="22" fill="1" visible="no" active="no"/>
<layer number="222" name="222bmp" color="23" fill="1" visible="no" active="no"/>
<layer number="223" name="223bmp" color="24" fill="1" visible="no" active="no"/>
<layer number="224" name="224bmp" color="25" fill="1" visible="no" active="no"/>
<layer number="225" name="225bmp" color="7" fill="1" visible="yes" active="yes"/>
<layer number="226" name="226bmp" color="7" fill="1" visible="yes" active="yes"/>
<layer number="227" name="227bmp" color="7" fill="1" visible="yes" active="yes"/>
<layer number="228" name="228bmp" color="7" fill="1" visible="yes" active="yes"/>
<layer number="229" name="229bmp" color="7" fill="1" visible="yes" active="yes"/>
<layer number="230" name="230bmp" color="7" fill="1" visible="yes" active="yes"/>
<layer number="231" name="Eagle3D_PG1" color="7" fill="1" visible="no" active="no"/>
<layer number="232" name="Eagle3D_PG2" color="7" fill="1" visible="no" active="no"/>
<layer number="233" name="Eagle3D_PG3" color="7" fill="1" visible="no" active="no"/>
<layer number="248" name="Housing" color="7" fill="1" visible="no" active="yes"/>
<layer number="249" name="Edge" color="7" fill="1" visible="no" active="yes"/>
<layer number="250" name="Descript" color="7" fill="1" visible="no" active="no"/>
<layer number="251" name="SMDround" color="7" fill="1" visible="no" active="no"/>
<layer number="254" name="cooling" color="7" fill="1" visible="no" active="yes"/>
<layer number="255" name="routoute" color="7" fill="1" visible="yes" active="yes"/>
</layers>
<schematic xreflabel="%F%N/%S.%C%R" xrefpart="/%S.%C%R">
<libraries>
<library name="adafruit" urn="urn:adsk.eagle:library:420">
<packages>
<package name="ARDUINOR3" urn="urn:adsk.eagle:footprint:6240234/1" library_version="2">
<description>The new Arduino R3 'classic' adds duplicate I2C pins and an IORef pin (and an unused pin</description>
<wire x1="0" y1="0" x2="66.04" y2="0" width="0" layer="20"/>
<wire x1="66.04" y1="0" x2="66.04" y2="2.54" width="0" layer="20"/>
<wire x1="66.04" y1="2.54" x2="68.58" y2="5.08" width="0" layer="20"/>
<wire x1="68.58" y1="5.08" x2="68.58" y2="37.846" width="0" layer="20"/>
<wire x1="68.58" y1="37.846" x2="66.04" y2="40.386" width="0" layer="20"/>
<wire x1="66.04" y1="40.386" x2="66.04" y2="51.816" width="0" layer="20"/>
<wire x1="66.04" y1="51.816" x2="64.516" y2="53.34" width="0" layer="20"/>
<wire x1="64.516" y1="53.34" x2="0" y2="53.34" width="0" layer="20"/>
<wire x1="0" y1="53.34" x2="0" y2="0" width="0" layer="20"/>
<circle x="15.24" y="50.8" radius="1.796" width="0.127" layer="51"/>
<circle x="13.97" y="2.54" radius="1.796" width="0.127" layer="51"/>
<circle x="66.04" y="35.56" radius="1.796" width="0.127" layer="51"/>
<circle x="66.04" y="7.62" radius="1.796" width="0.127" layer="51"/>
<pad name="D4" x="53.34" y="50.8" drill="1" diameter="1.6764" shape="octagon"/>
<pad name="A0" x="50.8" y="2.54" drill="1" diameter="1.6764" shape="octagon"/>
<pad name="D3" x="55.88" y="50.8" drill="1" diameter="1.6764" shape="octagon"/>
<pad name="D2" x="58.42" y="50.8" drill="1" diameter="1.6764" shape="octagon"/>
<pad name="D1" x="60.96" y="50.8" drill="1" diameter="1.6764" shape="octagon"/>
<pad name="D0" x="63.5" y="50.8" drill="1" diameter="1.6764" shape="octagon"/>
<pad name="D5" x="50.8" y="50.8" drill="1" diameter="1.6764" shape="octagon"/>
<pad name="D6" x="48.26" y="50.8" drill="1" diameter="1.6764" shape="octagon"/>
<pad name="D7" x="45.72" y="50.8" drill="1" diameter="1.6764" shape="octagon"/>
<pad name="D8" x="41.656" y="50.8" drill="1" diameter="1.6764" shape="octagon"/>
<pad name="D9" x="39.116" y="50.8" drill="1" diameter="1.6764" shape="octagon"/>
<pad name="D10" x="36.576" y="50.8" drill="1" diameter="1.6764" shape="octagon"/>
<pad name="D11" x="34.036" y="50.8" drill="1" diameter="1.6764" shape="octagon"/>
<pad name="D12" x="31.496" y="50.8" drill="1" diameter="1.6764" shape="octagon"/>
<pad name="D13" x="28.956" y="50.8" drill="1" diameter="1.6764" shape="octagon"/>
<pad name="GND" x="26.416" y="50.8" drill="1" diameter="1.6764" shape="octagon"/>
<pad name="AREF" x="23.876" y="50.8" drill="1" diameter="1.6764" shape="octagon"/>
<pad name="A1" x="53.34" y="2.54" drill="1" diameter="1.6764" shape="octagon"/>
<pad name="A2" x="55.88" y="2.54" drill="1" diameter="1.6764" shape="octagon"/>
<pad name="A3" x="58.42" y="2.54" drill="1" diameter="1.6764" shape="octagon"/>
<pad name="A4" x="60.96" y="2.54" drill="1" diameter="1.6764" shape="octagon"/>
<pad name="A5" x="63.5" y="2.54" drill="1" diameter="1.6764" shape="octagon"/>
<pad name="VIN" x="45.72" y="2.54" drill="1" diameter="1.6764" shape="octagon"/>
<pad name="GND1" x="43.18" y="2.54" drill="1" diameter="1.6764" shape="octagon"/>
<pad name="GND2" x="40.64" y="2.54" drill="1" diameter="1.6764" shape="octagon"/>
<pad name="5V" x="38.1" y="2.54" drill="1" diameter="1.6764" shape="octagon"/>
<pad name="3V" x="35.56" y="2.54" drill="1" diameter="1.6764" shape="octagon"/>
<pad name="RESET" x="33.02" y="2.54" drill="1" diameter="1.6764" shape="octagon"/>
<pad name="SDA" x="21.336" y="50.8" drill="1" diameter="1.6764" shape="octagon"/>
<pad name="SCL" x="18.796" y="50.8" drill="1" diameter="1.6764" shape="octagon"/>
<pad name="IOREF" x="30.48" y="2.54" drill="1" diameter="1.6764" shape="octagon"/>
<pad name="RESERVED" x="27.94" y="2.54" drill="1" diameter="1.6764" shape="octagon"/>
<text x="31.7399" y="0.254" size="1.016" layer="21" font="vector">RST</text>
<text x="34.7523" y="3.81" size="1.016" layer="21" font="vector">3v</text>
<text x="37.5463" y="3.81" size="1.016" layer="21" font="vector">5v</text>
<text x="40.7771" y="3.81" size="1.016" layer="21" font="vector">Gnd</text>
<text x="44.7853" y="3.81" size="1.016" layer="21" font="vector">Vin</text>
<text x="54.1121" y="0.4623" size="1.016" layer="21" font="vector">Analog In</text>
<text x="50.419" y="3.81" size="1.016" layer="21" font="vector">0</text>
<text x="52.959" y="3.81" size="1.016" layer="21" font="vector">1</text>
<text x="55.499" y="3.81" size="1.016" layer="21" font="vector">2</text>
<text x="58.039" y="3.81" size="1.016" layer="21" font="vector">3</text>
<text x="60.579" y="3.81" size="1.016" layer="21" font="vector">4</text>
<text x="63.119" y="3.81" size="1.016" layer="21" font="vector">5</text>
<text x="22.225" y="48.514" size="1.016" layer="21" font="vector">ARef</text>
<text x="25.146" y="52.07" size="1.016" layer="21" font="vector">Gnd</text>
<text x="30.099" y="49.53" size="1.016" layer="21" font="vector" rot="R180">13</text>
<text x="32.639" y="49.53" size="1.016" layer="21" font="vector" rot="R180">12</text>
<text x="35.179" y="49.53" size="1.016" layer="21" font="vector" rot="R180">11</text>
<text x="37.719" y="49.53" size="1.016" layer="21" font="vector" rot="R180">10</text>
<text x="39.751" y="49.53" size="1.016" layer="21" font="vector" rot="R180">9</text>
<text x="42.291" y="49.53" size="1.016" layer="21" font="vector" rot="R180">8</text>
<text x="46.355" y="49.53" size="1.016" layer="21" font="vector" rot="R180">7</text>
<text x="48.895" y="49.53" size="1.016" layer="21" font="vector" rot="R180">6</text>
<text x="51.435" y="49.53" size="1.016" layer="21" font="vector" rot="R180">5</text>
<text x="53.975" y="49.53" size="1.016" layer="21" font="vector" rot="R180">4</text>
<text x="56.515" y="49.53" size="1.016" layer="21" font="vector" rot="R180">3</text>
<text x="59.055" y="49.53" size="1.016" layer="21" font="vector" rot="R180">2</text>
<text x="61.595" y="49.53" size="1.016" layer="21" font="vector" rot="R180">1</text>
<text x="64.135" y="49.53" size="1.016" layer="21" font="vector" rot="R180">0</text>
<text x="31.623" y="52.07" size="1.016" layer="21" font="vector">Digital I/O</text>
<text x="50.927" y="52.07" size="1.016" layer="21" font="vector">Digital I/O</text>
<text x="17.653" y="48.514" size="1.016" layer="21" font="vector">SCL</text>
<text x="19.939" y="52.07" size="1.016" layer="21" font="vector">SDA</text>
<text x="29.4539" y="3.81" size="1.016" layer="21" font="vector">IOr</text>
</package>
<package name="ARDUINOR3-BPLACE" urn="urn:adsk.eagle:footprint:6240236/1" library_version="2">
<wire x1="0" y1="0" x2="66.04" y2="0" width="0" layer="22"/>
<wire x1="66.04" y1="0" x2="66.04" y2="2.54" width="0" layer="22"/>
<wire x1="66.04" y1="2.54" x2="68.58" y2="5.08" width="0" layer="22"/>
<wire x1="68.58" y1="5.08" x2="68.58" y2="37.846" width="0" layer="22"/>
<wire x1="68.58" y1="37.846" x2="66.04" y2="40.386" width="0" layer="22"/>
<wire x1="66.04" y1="40.386" x2="66.04" y2="51.816" width="0" layer="22"/>
<wire x1="66.04" y1="51.816" x2="64.516" y2="53.34" width="0" layer="22"/>
<wire x1="64.516" y1="53.34" x2="0" y2="53.34" width="0" layer="22"/>
<wire x1="0" y1="53.34" x2="0" y2="0" width="0" layer="22"/>
<circle x="15.24" y="50.8" radius="1.796" width="0.127" layer="51"/>
<circle x="13.97" y="2.54" radius="1.796" width="0.127" layer="51"/>
<circle x="66.04" y="35.56" radius="1.796" width="0.127" layer="51"/>
<circle x="66.04" y="7.62" radius="1.796" width="0.127" layer="51"/>
<pad name="D4" x="53.34" y="50.8" drill="1" diameter="1.6764" shape="octagon"/>
<pad name="A0" x="50.8" y="2.54" drill="1" diameter="1.6764" shape="octagon"/>
<pad name="D3" x="55.88" y="50.8" drill="1" diameter="1.6764" shape="octagon"/>
<pad name="D2" x="58.42" y="50.8" drill="1" diameter="1.6764" shape="octagon"/>
<pad name="D1" x="60.96" y="50.8" drill="1" diameter="1.6764" shape="octagon"/>
<pad name="D0" x="63.5" y="50.8" drill="1" diameter="1.6764" shape="octagon"/>
<pad name="D5" x="50.8" y="50.8" drill="1" diameter="1.6764" shape="octagon"/>
<pad name="D6" x="48.26" y="50.8" drill="1" diameter="1.6764" shape="octagon"/>
<pad name="D7" x="45.72" y="50.8" drill="1" diameter="1.6764" shape="octagon"/>
<pad name="D8" x="41.656" y="50.8" drill="1" diameter="1.6764" shape="octagon"/>
<pad name="D9" x="39.116" y="50.8" drill="1" diameter="1.6764" shape="octagon"/>
<pad name="D10" x="36.576" y="50.8" drill="1" diameter="1.6764" shape="octagon"/>
<pad name="D11" x="34.036" y="50.8" drill="1" diameter="1.6764" shape="octagon"/>
<pad name="D12" x="31.496" y="50.8" drill="1" diameter="1.6764" shape="octagon"/>
<pad name="D13" x="28.956" y="50.8" drill="1" diameter="1.6764" shape="octagon"/>
<pad name="GND" x="26.416" y="50.8" drill="1" diameter="1.6764" shape="octagon"/>
<pad name="AREF" x="23.876" y="50.8" drill="1" diameter="1.6764" shape="octagon"/>
<pad name="A1" x="53.34" y="2.54" drill="1" diameter="1.6764" shape="octagon"/>
<pad name="A2" x="55.88" y="2.54" drill="1" diameter="1.6764" shape="octagon"/>
<pad name="A3" x="58.42" y="2.54" drill="1" diameter="1.6764" shape="octagon"/>
<pad name="A4" x="60.96" y="2.54" drill="1" diameter="1.6764" shape="octagon"/>
<pad name="A5" x="63.5" y="2.54" drill="1" diameter="1.6764" shape="octagon"/>
<pad name="VIN" x="45.72" y="2.54" drill="1" diameter="1.6764" shape="octagon"/>
<pad name="GND1" x="43.18" y="2.54" drill="1" diameter="1.6764" shape="octagon"/>
<pad name="GND2" x="40.64" y="2.54" drill="1" diameter="1.6764" shape="octagon"/>
<pad name="5V" x="38.1" y="2.54" drill="1" diameter="1.6764" shape="octagon"/>
<pad name="3V" x="35.56" y="2.54" drill="1" diameter="1.6764" shape="octagon"/>
<pad name="RESET" x="33.02" y="2.54" drill="1" diameter="1.6764" shape="octagon"/>
<pad name="SDA" x="21.336" y="50.8" drill="1" diameter="1.6764" shape="octagon"/>
<pad name="SCL" x="18.796" y="50.8" drill="1" diameter="1.6764" shape="octagon"/>
<pad name="IOREF" x="30.48" y="2.54" drill="1" diameter="1.6764" shape="octagon"/>
<pad name="RESERVED" x="27.94" y="2.54" drill="1" diameter="1.6764" shape="octagon"/>
<text x="33.528" y="3.7999" size="1.016" layer="21" font="vector" rot="R90">RST</text>
<text x="34.7523" y="3.81" size="1.016" layer="21" font="vector">3v</text>
<text x="37.5463" y="3.81" size="1.016" layer="21" font="vector">5v</text>
<text x="40.7771" y="3.81" size="1.016" layer="21" font="vector">Gnd</text>
<text x="44.7853" y="3.81" size="1.016" layer="21" font="vector">Vin</text>
<text x="54.1121" y="0.4623" size="1.016" layer="21" font="vector">Analog In</text>
<text x="50.419" y="3.81" size="1.016" layer="21" font="vector">0</text>
<text x="52.959" y="3.81" size="1.016" layer="21" font="vector">1</text>
<text x="55.499" y="3.81" size="1.016" layer="21" font="vector">2</text>
<text x="58.039" y="3.81" size="1.016" layer="21" font="vector">3</text>
<text x="60.579" y="3.81" size="1.016" layer="21" font="vector">4</text>
<text x="63.119" y="3.81" size="1.016" layer="21" font="vector">5</text>
<text x="23.368" y="49.911" size="1.016" layer="21" font="vector" rot="R270">ARef</text>
<text x="25.908" y="49.784" size="1.016" layer="21" font="vector" rot="R270">gnd</text>
<text x="30.099" y="49.53" size="1.016" layer="21" font="vector" rot="R180">13</text>
<text x="32.639" y="49.53" size="1.016" layer="21" font="vector" rot="R180">12</text>
<text x="35.179" y="49.53" size="1.016" layer="21" font="vector" rot="R180">11</text>
<text x="37.719" y="49.53" size="1.016" layer="21" font="vector" rot="R180">10</text>
<text x="39.751" y="49.53" size="1.016" layer="21" font="vector" rot="R180">9</text>
<text x="42.291" y="49.53" size="1.016" layer="21" font="vector" rot="R180">8</text>
<text x="46.355" y="49.53" size="1.016" layer="21" font="vector" rot="R180">7</text>
<text x="48.895" y="49.53" size="1.016" layer="21" font="vector" rot="R180">6</text>
<text x="51.435" y="49.53" size="1.016" layer="21" font="vector" rot="R180">5</text>
<text x="53.975" y="49.53" size="1.016" layer="21" font="vector" rot="R180">4</text>
<text x="56.515" y="49.53" size="1.016" layer="21" font="vector" rot="R180">3</text>
<text x="59.055" y="49.53" size="1.016" layer="21" font="vector" rot="R180">2</text>
<text x="61.595" y="49.53" size="1.016" layer="21" font="vector" rot="R180">1</text>
<text x="64.135" y="49.53" size="1.016" layer="21" font="vector" rot="R180">0</text>
<text x="31.623" y="52.07" size="1.016" layer="21" font="vector">Digital I/O</text>
<text x="50.927" y="52.07" size="1.016" layer="21" font="vector">Digital I/O</text>
<text x="18.288" y="49.911" size="1.016" layer="21" font="vector" rot="R270">SCL</text>
<text x="20.828" y="49.911" size="1.016" layer="21" font="vector" rot="R270">SDA</text>
<text x="30.988" y="3.7999" size="1.016" layer="21" font="vector" rot="R90">IOr</text>
</package>
<package name="1X01" urn="urn:adsk.eagle:footprint:6240008/1" library_version="2">
<description>&lt;b&gt;PIN HEADER&lt;/b&gt;</description>
<wire x1="-0.635" y1="1.27" x2="0.635" y2="1.27" width="0.1524" layer="21"/>
<wire x1="0.635" y1="1.27" x2="1.27" y2="0.635" width="0.1524" layer="21"/>
<wire x1="1.27" y1="0.635" x2="1.27" y2="-0.635" width="0.1524" layer="21"/>
<wire x1="1.27" y1="-0.635" x2="0.635" y2="-1.27" width="0.1524" layer="21"/>
<wire x1="-1.27" y1="0.635" x2="-1.27" y2="-0.635" width="0.1524" layer="21"/>
<wire x1="-0.635" y1="1.27" x2="-1.27" y2="0.635" width="0.1524" layer="21"/>
<wire x1="-1.27" y1="-0.635" x2="-0.635" y2="-1.27" width="0.1524" layer="21"/>
<wire x1="0.635" y1="-1.27" x2="-0.635" y2="-1.27" width="0.1524" layer="21"/>
<pad name="1" x="0" y="0" drill="1.016" diameter="1.9304" shape="octagon"/>
<text x="-1.3462" y="1.8288" size="1.27" layer="25" ratio="10">&gt;NAME</text>
<text x="-1.27" y="-3.175" size="1.27" layer="27">&gt;VALUE</text>
<rectangle x1="-0.254" y1="-0.254" x2="0.254" y2="0.254" layer="51"/>
</package>
<package name="1X01-CLEANBIG" urn="urn:adsk.eagle:footprint:6240197/1" library_version="2">
<pad name="1" x="0" y="0" drill="1.016" diameter="1.778"/>
<text x="-1.3462" y="1.8288" size="1.27" layer="25" ratio="10">&gt;NAME</text>
<text x="-1.27" y="-3.175" size="1.27" layer="27">&gt;VALUE</text>
</package>
<package name="1X1-BIGPOGO" urn="urn:adsk.eagle:footprint:6240310/1" library_version="2">
<pad name="P$1" x="0" y="0" drill="1.4" diameter="2.54" shape="long"/>
</package>
</packages>
<packages3d>
<package3d name="ARDUINOR3" urn="urn:adsk.eagle:package:6240877/1" type="box" library_version="2">
<description>The new Arduino R3 'classic' adds duplicate I2C pins and an IORef pin (and an unused pin</description>
<packageinstances>
<packageinstance name="ARDUINOR3"/>
</packageinstances>
</package3d>
<package3d name="ARDUINOR3-BPLACE" urn="urn:adsk.eagle:package:6240879/1" type="box" library_version="2">
<packageinstances>
<packageinstance name="ARDUINOR3-BPLACE"/>
</packageinstances>
</package3d>
<package3d name="1X01" urn="urn:adsk.eagle:package:6240654/1" type="box" library_version="2">
<description>&lt;b&gt;PIN HEADER&lt;/b&gt;</description>
<packageinstances>
<packageinstance name="1X01"/>
</packageinstances>
</package3d>
<package3d name="1X01-CLEANBIG" urn="urn:adsk.eagle:package:6240841/1" type="box" library_version="2">
<packageinstances>
<packageinstance name="1X01-CLEANBIG"/>
</packageinstances>
</package3d>
<package3d name="1X1-BIGPOGO" urn="urn:adsk.eagle:package:6240953/1" type="box" library_version="2">
<packageinstances>
<packageinstance name="1X1-BIGPOGO"/>
</packageinstances>
</package3d>
</packages3d>
<symbols>
<symbol name="ARDUINOR3" urn="urn:adsk.eagle:symbol:6239633/1" library_version="2">
<wire x1="-33.02" y1="25.4" x2="-33.02" y2="-25.4" width="0.254" layer="94"/>
<wire x1="-33.02" y1="-25.4" x2="25.4" y2="-25.4" width="0.254" layer="94"/>
<wire x1="25.4" y1="-25.4" x2="25.4" y2="-22.86" width="0.254" layer="94"/>
<wire x1="25.4" y1="-22.86" x2="30.48" y2="-17.78" width="0.254" layer="94"/>
<wire x1="30.48" y1="-17.78" x2="30.48" y2="7.62" width="0.254" layer="94"/>
<wire x1="30.48" y1="7.62" x2="25.4" y2="12.7" width="0.254" layer="94"/>
<wire x1="25.4" y1="12.7" x2="25.4" y2="22.86" width="0.254" layer="94"/>
<wire x1="25.4" y1="22.86" x2="22.86" y2="25.4" width="0.254" layer="94"/>
<wire x1="22.86" y1="25.4" x2="-33.02" y2="25.4" width="0.254" layer="94"/>
<wire x1="-25.4" y1="17.78" x2="-25.4" y2="-10.16" width="0.254" layer="94" style="shortdash"/>
<wire x1="-25.4" y1="-10.16" x2="22.86" y2="-10.16" width="0.254" layer="94" style="shortdash"/>
<wire x1="22.86" y1="-10.16" x2="22.86" y2="-15.24" width="0.254" layer="94" style="shortdash"/>
<wire x1="-22.86" y1="17.78" x2="-22.86" y2="-7.62" width="0.254" layer="94" style="shortdash"/>
<wire x1="-22.86" y1="-7.62" x2="20.32" y2="-7.62" width="0.254" layer="94" style="shortdash"/>
<wire x1="20.32" y1="-7.62" x2="20.32" y2="-15.24" width="0.254" layer="94" style="shortdash"/>
<text x="-17.78" y="2.54" size="5.08" layer="94">ARDUINO</text>
<text x="-10.16" y="-2.54" size="2.54" layer="94">UNO R3</text>
<pin name="D0" x="20.32" y="30.48" visible="pin" length="middle" rot="R270"/>
<pin name="D1" x="17.78" y="30.48" visible="pin" length="middle" rot="R270"/>
<pin name="D2" x="15.24" y="30.48" visible="pin" length="middle" rot="R270"/>
<pin name="D3" x="12.7" y="30.48" visible="pin" length="middle" rot="R270"/>
<pin name="D4" x="10.16" y="30.48" visible="pin" length="middle" rot="R270"/>
<pin name="D5" x="7.62" y="30.48" visible="pin" length="middle" rot="R270"/>
<pin name="D6" x="5.08" y="30.48" visible="pin" length="middle" rot="R270"/>
<pin name="D7" x="2.54" y="30.48" visible="pin" length="middle" rot="R270"/>
<pin name="D8" x="-2.54" y="30.48" visible="pin" length="middle" rot="R270"/>
<pin name="D9" x="-5.08" y="30.48" visible="pin" length="middle" rot="R270"/>
<pin name="D10" x="-7.62" y="30.48" visible="pin" length="middle" rot="R270"/>
<pin name="D11" x="-10.16" y="30.48" visible="pin" length="middle" rot="R270"/>
<pin name="D12" x="-12.7" y="30.48" visible="pin" length="middle" rot="R270"/>
<pin name="D13" x="-15.24" y="30.48" visible="pin" length="middle" rot="R270"/>
<pin name="GND" x="-17.78" y="30.48" visible="pin" length="middle" direction="pwr" rot="R270"/>
<pin name="AREF" x="-20.32" y="30.48" visible="pin" length="middle" rot="R270"/>
<pin name="A5/SCL" x="22.86" y="-30.48" visible="pin" length="middle" rot="R90"/>
<pin name="A4/SDA" x="20.32" y="-30.48" visible="pin" length="middle" rot="R90"/>
<pin name="A3" x="17.78" y="-30.48" visible="pin" length="middle" rot="R90"/>
<pin name="A2" x="15.24" y="-30.48" visible="pin" length="middle" rot="R90"/>
<pin name="A1" x="12.7" y="-30.48" visible="pin" length="middle" rot="R90"/>
<pin name="A0" x="10.16" y="-30.48" visible="pin" length="middle" rot="R90"/>
<pin name="VIN" x="5.08" y="-30.48" visible="pin" length="middle" direction="pwr" rot="R90"/>
<pin name="GND1" x="2.54" y="-30.48" visible="pin" length="middle" direction="pwr" rot="R90"/>
<pin name="GND2" x="0" y="-30.48" visible="pin" length="middle" direction="pwr" rot="R90"/>
<pin name="5V" x="-2.54" y="-30.48" visible="pin" length="middle" direction="pwr" rot="R90"/>
<pin name="3V" x="-5.08" y="-30.48" visible="pin" length="middle" direction="pwr" rot="R90"/>
<pin name="/RESET" x="-7.62" y="-30.48" visible="pin" length="middle" rot="R90"/>
<pin name="IOREF" x="-10.16" y="-30.48" visible="pin" length="middle" direction="out" rot="R90"/>
<pin name="RESERVED" x="-12.7" y="-30.48" visible="pin" length="middle" direction="nc" rot="R90"/>
<pin name="SCL" x="-25.4" y="30.48" visible="pin" length="middle" rot="R270"/>
<pin name="SDA" x="-22.86" y="30.48" visible="pin" length="middle" rot="R270"/>
</symbol>
<symbol name="PINHD1" urn="urn:adsk.eagle:symbol:6239504/1" library_version="2">
<wire x1="-6.35" y1="-2.54" x2="1.27" y2="-2.54" width="0.4064" layer="94"/>
<wire x1="1.27" y1="-2.54" x2="1.27" y2="2.54" width="0.4064" layer="94"/>
<wire x1="1.27" y1="2.54" x2="-6.35" y2="2.54" width="0.4064" layer="94"/>
<wire x1="-6.35" y1="2.54" x2="-6.35" y2="-2.54" width="0.4064" layer="94"/>
<text x="-6.35" y="3.175" size="1.778" layer="95">&gt;NAME</text>
<text x="-6.35" y="-5.08" size="1.778" layer="96">&gt;VALUE</text>
<pin name="1" x="-2.54" y="0" visible="pad" length="short" direction="pas" function="dot"/>
</symbol>
</symbols>
<devicesets>
<deviceset name="ARDUINOR3" urn="urn:adsk.eagle:component:6241123/1" prefix="U" library_version="2">
<description>This is a new object for the new Arduino R3 - with extra pins that you may want to use (such as IOref, and duplicated A4/A5</description>
<gates>
<gate name="G$1" symbol="ARDUINOR3" x="2.54" y="0"/>
</gates>
<devices>
<device name="-DIMENSION" package="ARDUINOR3">
<connects>
<connect gate="G$1" pin="/RESET" pad="RESET"/>
<connect gate="G$1" pin="3V" pad="3V"/>
<connect gate="G$1" pin="5V" pad="5V"/>
<connect gate="G$1" pin="A0" pad="A0"/>
<connect gate="G$1" pin="A1" pad="A1"/>
<connect gate="G$1" pin="A2" pad="A2"/>
<connect gate="G$1" pin="A3" pad="A3"/>
<connect gate="G$1" pin="A4/SDA" pad="A4"/>
<connect gate="G$1" pin="A5/SCL" pad="A5"/>
<connect gate="G$1" pin="AREF" pad="AREF"/>
<connect gate="G$1" pin="D0" pad="D0"/>
<connect gate="G$1" pin="D1" pad="D1"/>
<connect gate="G$1" pin="D10" pad="D10"/>
<connect gate="G$1" pin="D11" pad="D11"/>
<connect gate="G$1" pin="D12" pad="D12"/>
<connect gate="G$1" pin="D13" pad="D13"/>
<connect gate="G$1" pin="D2" pad="D2"/>
<connect gate="G$1" pin="D3" pad="D3"/>
<connect gate="G$1" pin="D4" pad="D4"/>
<connect gate="G$1" pin="D5" pad="D5"/>
<connect gate="G$1" pin="D6" pad="D6"/>
<connect gate="G$1" pin="D7" pad="D7"/>
<connect gate="G$1" pin="D8" pad="D8"/>
<connect gate="G$1" pin="D9" pad="D9"/>
<connect gate="G$1" pin="GND" pad="GND"/>
<connect gate="G$1" pin="GND1" pad="GND1"/>
<connect gate="G$1" pin="GND2" pad="GND2"/>
<connect gate="G$1" pin="IOREF" pad="IOREF"/>
<connect gate="G$1" pin="RESERVED" pad="RESERVED"/>
<connect gate="G$1" pin="SCL" pad="SCL"/>
<connect gate="G$1" pin="SDA" pad="SDA"/>
<connect gate="G$1" pin="VIN" pad="VIN"/>
</connects>
<package3dinstances>
<package3dinstance package3d_urn="urn:adsk.eagle:package:6240877/1"/>
</package3dinstances>
<technologies>
<technology name=""/>
</technologies>
</device>
<device name="-BPLACE" package="ARDUINOR3-BPLACE">
<connects>
<connect gate="G$1" pin="/RESET" pad="RESET"/>
<connect gate="G$1" pin="3V" pad="3V"/>
<connect gate="G$1" pin="5V" pad="5V"/>
<connect gate="G$1" pin="A0" pad="A0"/>
<connect gate="G$1" pin="A1" pad="A1"/>
<connect gate="G$1" pin="A2" pad="A2"/>
<connect gate="G$1" pin="A3" pad="A3"/>
<connect gate="G$1" pin="A4/SDA" pad="A4"/>
<connect gate="G$1" pin="A5/SCL" pad="A5"/>
<connect gate="G$1" pin="AREF" pad="AREF"/>
<connect gate="G$1" pin="D0" pad="D0"/>
<connect gate="G$1" pin="D1" pad="D1"/>
<connect gate="G$1" pin="D10" pad="D10"/>
<connect gate="G$1" pin="D11" pad="D11"/>
<connect gate="G$1" pin="D12" pad="D12"/>
<connect gate="G$1" pin="D13" pad="D13"/>
<connect gate="G$1" pin="D2" pad="D2"/>
<connect gate="G$1" pin="D3" pad="D3"/>
<connect gate="G$1" pin="D4" pad="D4"/>
<connect gate="G$1" pin="D5" pad="D5"/>
<connect gate="G$1" pin="D6" pad="D6"/>
<connect gate="G$1" pin="D7" pad="D7"/>
<connect gate="G$1" pin="D8" pad="D8"/>
<connect gate="G$1" pin="D9" pad="D9"/>
<connect gate="G$1" pin="GND" pad="GND"/>
<connect gate="G$1" pin="GND1" pad="GND1"/>
<connect gate="G$1" pin="GND2" pad="GND2"/>
<connect gate="G$1" pin="IOREF" pad="IOREF"/>
<connect gate="G$1" pin="RESERVED" pad="RESERVED"/>
<connect gate="G$1" pin="SCL" pad="SCL"/>
<connect gate="G$1" pin="SDA" pad="SDA"/>
<connect gate="G$1" pin="VIN" pad="VIN"/>
</connects>
<package3dinstances>
<package3dinstance package3d_urn="urn:adsk.eagle:package:6240879/1"/>
</package3dinstances>
<technologies>
<technology name=""/>
</technologies>
</device>
</devices>
</deviceset>
<deviceset name="PINHD-1X1" urn="urn:adsk.eagle:component:6240995/1" prefix="JP" uservalue="yes" library_version="2">
<description>&lt;b&gt;Pin header 1x1 for 0.1" spacing&lt;/b&gt;
&lt;p&gt;
With round pins</description>
<gates>
<gate name="G$1" symbol="PINHD1" x="0" y="0"/>
</gates>
<devices>
<device name="" package="1X01">
<connects>
<connect gate="G$1" pin="1" pad="1"/>
</connects>
<package3dinstances>
<package3dinstance package3d_urn="urn:adsk.eagle:package:6240654/1"/>
</package3dinstances>
<technologies>
<technology name=""/>
</technologies>
</device>
<device name="CB" package="1X01-CLEANBIG">
<connects>
<connect gate="G$1" pin="1" pad="1"/>
</connects>
<package3dinstances>
<package3dinstance package3d_urn="urn:adsk.eagle:package:6240841/1"/>
</package3dinstances>
<technologies>
<technology name=""/>
</technologies>
</device>
<device name="-BIGPOGO" package="1X1-BIGPOGO">
<connects>
<connect gate="G$1" pin="1" pad="P$1"/>
</connects>
<package3dinstances>
<package3dinstance package3d_urn="urn:adsk.eagle:package:6240953/1"/>
</package3dinstances>
<technologies>
<technology name=""/>
</technologies>
</device>
</devices>
</deviceset>
</devicesets>
</library>
<library name="fab">
<packages>
<package name="R1206">
<description>&lt;b&gt;RESISTOR&lt;/b&gt;</description>
<wire x1="0.9525" y1="-0.8128" x2="-0.9652" y2="-0.8128" width="0.1524" layer="51"/>
<wire x1="0.9525" y1="0.8128" x2="-0.9652" y2="0.8128" width="0.1524" layer="51"/>
<wire x1="-2.473" y1="0.983" x2="2.473" y2="0.983" width="0.0508" layer="39"/>
<wire x1="2.473" y1="0.983" x2="2.473" y2="-0.983" width="0.0508" layer="39"/>
<wire x1="2.473" y1="-0.983" x2="-2.473" y2="-0.983" width="0.0508" layer="39"/>
<wire x1="-2.473" y1="-0.983" x2="-2.473" y2="0.983" width="0.0508" layer="39"/>
<smd name="2" x="1.422" y="0" dx="1.6" dy="1.803" layer="1"/>
<smd name="1" x="-1.422" y="0" dx="1.6" dy="1.803" layer="1"/>
<text x="-1.27" y="1.27" size="1.27" layer="25">&gt;NAME</text>
<text x="-1.27" y="-2.54" size="1.27" layer="27">&gt;VALUE</text>
<rectangle x1="-1.6891" y1="-0.8763" x2="-0.9525" y2="0.8763" layer="51"/>
<rectangle x1="0.9525" y1="-0.8763" x2="1.6891" y2="0.8763" layer="51"/>
<rectangle x1="-0.3" y1="-0.7" x2="0.3" y2="0.7" layer="35"/>
</package>
<package name="R1206W">
<description>&lt;b&gt;RESISTOR&lt;/b&gt;&lt;p&gt;
wave soldering</description>
<wire x1="-0.913" y1="0.8" x2="0.888" y2="0.8" width="0.1524" layer="51"/>
<wire x1="-0.913" y1="-0.8" x2="0.888" y2="-0.8" width="0.1524" layer="51"/>
<wire x1="-2.473" y1="0.983" x2="2.473" y2="0.983" width="0.0508" layer="39"/>
<wire x1="2.473" y1="0.983" x2="2.473" y2="-0.983" width="0.0508" layer="39"/>
<wire x1="2.473" y1="-0.983" x2="-2.473" y2="-0.983" width="0.0508" layer="39"/>
<wire x1="-2.473" y1="-0.983" x2="-2.473" y2="0.983" width="0.0508" layer="39"/>
<smd name="1" x="-1.499" y="0" dx="1.8" dy="1.2" layer="1"/>
<smd name="2" x="1.499" y="0" dx="1.8" dy="1.2" layer="1"/>
<text x="-1.905" y="1.27" size="1.27" layer="25">&gt;NAME</text>
<text x="-1.905" y="-2.54" size="1.27" layer="27">&gt;VALUE</text>
<rectangle x1="-1.651" y1="-0.8763" x2="-0.9009" y2="0.8738" layer="51"/>
<rectangle x1="0.889" y1="-0.8763" x2="1.6391" y2="0.8738" layer="51"/>
<rectangle x1="-0.3" y1="-0.7" x2="0.3" y2="0.7" layer="35"/>
</package>
<package name="R1206FAB">
<wire x1="-2.032" y1="1.016" x2="2.032" y2="1.016" width="0.127" layer="21"/>
<wire x1="2.032" y1="1.016" x2="2.032" y2="-1.016" width="0.127" layer="21"/>
<wire x1="2.032" y1="-1.016" x2="-2.032" y2="-1.016" width="0.127" layer="21"/>
<wire x1="-2.032" y1="-1.016" x2="-2.032" y2="1.016" width="0.127" layer="21"/>
<smd name="1" x="-1.651" y="0" dx="1.27" dy="1.905" layer="1"/>
<smd name="2" x="1.651" y="0" dx="1.27" dy="1.905" layer="1"/>
<text x="-1.778" y="1.27" size="1.016" layer="25" ratio="15">&gt;NAME</text>
<text x="-1.778" y="-2.286" size="1.016" layer="27" ratio="15">&gt;VALUE</text>
</package>
</packages>
<symbols>
<symbol name="R-US">
<wire x1="-2.54" y1="0" x2="-2.159" y2="1.016" width="0.2032" layer="94"/>
<wire x1="-2.159" y1="1.016" x2="-1.524" y2="-1.016" width="0.2032" layer="94"/>
<wire x1="-1.524" y1="-1.016" x2="-0.889" y2="1.016" width="0.2032" layer="94"/>
<wire x1="-0.889" y1="1.016" x2="-0.254" y2="-1.016" width="0.2032" layer="94"/>
<wire x1="-0.254" y1="-1.016" x2="0.381" y2="1.016" width="0.2032" layer="94"/>
<wire x1="0.381" y1="1.016" x2="1.016" y2="-1.016" width="0.2032" layer="94"/>
<wire x1="1.016" y1="-1.016" x2="1.651" y2="1.016" width="0.2032" layer="94"/>
<wire x1="1.651" y1="1.016" x2="2.286" y2="-1.016" width="0.2032" layer="94"/>
<wire x1="2.286" y1="-1.016" x2="2.54" y2="0" width="0.2032" layer="94"/>
<text x="-3.81" y="1.4986" size="1.778" layer="95">&gt;NAME</text>
<text x="-3.81" y="-3.302" size="1.778" layer="96">&gt;VALUE</text>
<pin name="2" x="5.08" y="0" visible="off" length="short" direction="pas" swaplevel="1" rot="R180"/>
<pin name="1" x="-5.08" y="0" visible="off" length="short" direction="pas" swaplevel="1"/>
</symbol>
</symbols>
<devicesets>
<deviceset name="RES-US" prefix="R" uservalue="yes">
<description>&lt;b&gt;Resistor (US Symbol)&lt;/b&gt;
&lt;p&gt;
Variants with postfix FAB are widened to allow the routing of internal traces</description>
<gates>
<gate name="G$1" symbol="R-US" x="0" y="0"/>
</gates>
<devices>
<device name="1206" package="R1206">
<connects>
<connect gate="G$1" pin="1" pad="1"/>
<connect gate="G$1" pin="2" pad="2"/>
</connects>
<technologies>
<technology name=""/>
</technologies>
</device>
<device name="1206W" package="R1206W">
<connects>
<connect gate="G$1" pin="1" pad="1"/>
<connect gate="G$1" pin="2" pad="2"/>
</connects>
<technologies>
<technology name=""/>
</technologies>
</device>
<device name="1206FAB" package="R1206FAB">
<connects>
<connect gate="G$1" pin="1" pad="1"/>
<connect gate="G$1" pin="2" pad="2"/>
</connects>
<technologies>
<technology name=""/>
</technologies>
</device>
</devices>
</deviceset>
</devicesets>
</library>
</libraries>
<attributes>
</attributes>
<variantdefs>
</variantdefs>
<classes>
<class number="0" name="default" width="0" drill="0">
</class>
<class number="1" name="vcc" width="0.2032" drill="0">
</class>
</classes>
<parts>
<part name="U1" library="adafruit" library_urn="urn:adsk.eagle:library:420" deviceset="ARDUINOR3" device="-DIMENSION" package3d_urn="urn:adsk.eagle:package:6240877/1"/>
<part name="JP1" library="adafruit" library_urn="urn:adsk.eagle:library:420" deviceset="PINHD-1X1" device="" package3d_urn="urn:adsk.eagle:package:6240654/1"/>
<part name="JP2" library="adafruit" library_urn="urn:adsk.eagle:library:420" deviceset="PINHD-1X1" device="" package3d_urn="urn:adsk.eagle:package:6240654/1"/>
<part name="JP3" library="adafruit" library_urn="urn:adsk.eagle:library:420" deviceset="PINHD-1X1" device="" package3d_urn="urn:adsk.eagle:package:6240654/1"/>
<part name="JP4" library="adafruit" library_urn="urn:adsk.eagle:library:420" deviceset="PINHD-1X1" device="" package3d_urn="urn:adsk.eagle:package:6240654/1"/>
<part name="JP5" library="adafruit" library_urn="urn:adsk.eagle:library:420" deviceset="PINHD-1X1" device="" package3d_urn="urn:adsk.eagle:package:6240654/1"/>
<part name="JP6" library="adafruit" library_urn="urn:adsk.eagle:library:420" deviceset="PINHD-1X1" device="" package3d_urn="urn:adsk.eagle:package:6240654/1"/>
<part name="JP8" library="adafruit" library_urn="urn:adsk.eagle:library:420" deviceset="PINHD-1X1" device="" package3d_urn="urn:adsk.eagle:package:6240654/1"/>
<part name="JP9" library="adafruit" library_urn="urn:adsk.eagle:library:420" deviceset="PINHD-1X1" device="" package3d_urn="urn:adsk.eagle:package:6240654/1"/>
<part name="JP10" library="adafruit" library_urn="urn:adsk.eagle:library:420" deviceset="PINHD-1X1" device="" package3d_urn="urn:adsk.eagle:package:6240654/1"/>
<part name="JP11" library="adafruit" library_urn="urn:adsk.eagle:library:420" deviceset="PINHD-1X1" device="" package3d_urn="urn:adsk.eagle:package:6240654/1"/>
<part name="JP12" library="adafruit" library_urn="urn:adsk.eagle:library:420" deviceset="PINHD-1X1" device="" package3d_urn="urn:adsk.eagle:package:6240654/1"/>
<part name="JP13" library="adafruit" library_urn="urn:adsk.eagle:library:420" deviceset="PINHD-1X1" device="" package3d_urn="urn:adsk.eagle:package:6240654/1"/>
<part name="JP14" library="adafruit" library_urn="urn:adsk.eagle:library:420" deviceset="PINHD-1X1" device="" package3d_urn="urn:adsk.eagle:package:6240654/1"/>
<part name="JP15" library="adafruit" library_urn="urn:adsk.eagle:library:420" deviceset="PINHD-1X1" device="" package3d_urn="urn:adsk.eagle:package:6240654/1"/>
<part name="JP16" library="adafruit" library_urn="urn:adsk.eagle:library:420" deviceset="PINHD-1X1" device="" package3d_urn="urn:adsk.eagle:package:6240654/1"/>
<part name="JP7" library="adafruit" library_urn="urn:adsk.eagle:library:420" deviceset="PINHD-1X1" device="" package3d_urn="urn:adsk.eagle:package:6240654/1"/>
<part name="JP17" library="adafruit" library_urn="urn:adsk.eagle:library:420" deviceset="PINHD-1X1" device="" package3d_urn="urn:adsk.eagle:package:6240654/1"/>
<part name="JP18" library="adafruit" library_urn="urn:adsk.eagle:library:420" deviceset="PINHD-1X1" device="" package3d_urn="urn:adsk.eagle:package:6240654/1"/>
<part name="JP19" library="adafruit" library_urn="urn:adsk.eagle:library:420" deviceset="PINHD-1X1" device="" package3d_urn="urn:adsk.eagle:package:6240654/1"/>
<part name="JP20" library="adafruit" library_urn="urn:adsk.eagle:library:420" deviceset="PINHD-1X1" device="" package3d_urn="urn:adsk.eagle:package:6240654/1"/>
<part name="R1" library="fab" deviceset="RES-US" device="1206"/>
<part name="R2" library="fab" deviceset="RES-US" device="1206"/>
<part name="R3" library="fab" deviceset="RES-US" device="1206"/>
<part name="R4" library="fab" deviceset="RES-US" device="1206"/>
<part name="R5" library="fab" deviceset="RES-US" device="1206"/>
<part name="R6" library="fab" deviceset="RES-US" device="1206"/>
</parts>
<sheets>
<sheet>
<plain>
</plain>
<instances>
<instance part="U1" gate="G$1" x="71.12" y="60.96" smashed="yes"/>
<instance part="JP1" gate="G$1" x="50.8" y="22.86" smashed="yes">
<attribute name="NAME" x="44.45" y="26.035" size="1.778" layer="95"/>
<attribute name="VALUE" x="44.45" y="17.78" size="1.778" layer="96"/>
</instance>
<instance part="JP2" gate="G$1" x="50.8" y="15.24" smashed="yes">
<attribute name="NAME" x="44.45" y="18.415" size="1.778" layer="95"/>
<attribute name="VALUE" x="44.45" y="10.16" size="1.778" layer="96"/>
</instance>
<instance part="JP3" gate="G$1" x="50.8" y="7.62" smashed="yes">
<attribute name="NAME" x="44.45" y="10.795" size="1.778" layer="95"/>
<attribute name="VALUE" x="44.45" y="2.54" size="1.778" layer="96"/>
</instance>
<instance part="JP4" gate="G$1" x="50.8" y="0" smashed="yes">
<attribute name="NAME" x="44.45" y="3.175" size="1.778" layer="95"/>
<attribute name="VALUE" x="44.45" y="-5.08" size="1.778" layer="96"/>
</instance>
<instance part="JP5" gate="G$1" x="50.8" y="-7.62" smashed="yes">
<attribute name="NAME" x="44.45" y="-4.445" size="1.778" layer="95"/>
<attribute name="VALUE" x="44.45" y="-12.7" size="1.778" layer="96"/>
</instance>
<instance part="JP6" gate="G$1" x="50.8" y="-15.24" smashed="yes">
<attribute name="NAME" x="44.45" y="-12.065" size="1.778" layer="95"/>
<attribute name="VALUE" x="44.45" y="-20.32" size="1.778" layer="96"/>
</instance>
<instance part="JP8" gate="G$1" x="20.32" y="30.48" smashed="yes">
<attribute name="VALUE" x="13.97" y="25.4" size="1.778" layer="96"/>
</instance>
<instance part="JP9" gate="G$1" x="20.32" y="22.86" smashed="yes">
<attribute name="NAME" x="13.97" y="26.035" size="1.778" layer="95"/>
<attribute name="VALUE" x="13.97" y="17.78" size="1.778" layer="96"/>
</instance>
<instance part="JP10" gate="G$1" x="20.32" y="15.24" smashed="yes">
<attribute name="NAME" x="13.97" y="18.415" size="1.778" layer="95"/>
<attribute name="VALUE" x="13.97" y="10.16" size="1.778" layer="96"/>
</instance>
<instance part="JP11" gate="G$1" x="20.32" y="7.62" smashed="yes">
<attribute name="NAME" x="13.97" y="10.795" size="1.778" layer="95"/>
<attribute name="VALUE" x="13.97" y="2.54" size="1.778" layer="96"/>
</instance>
<instance part="JP12" gate="G$1" x="20.32" y="0" smashed="yes">
<attribute name="NAME" x="13.97" y="3.175" size="1.778" layer="95"/>
<attribute name="VALUE" x="13.97" y="-5.08" size="1.778" layer="96"/>
</instance>
<instance part="JP13" gate="G$1" x="20.32" y="-7.62" smashed="yes">
<attribute name="NAME" x="13.97" y="-4.445" size="1.778" layer="95"/>
<attribute name="VALUE" x="13.97" y="-12.7" size="1.778" layer="96"/>
</instance>
<instance part="JP14" gate="G$1" x="20.32" y="-15.24" smashed="yes">
<attribute name="VALUE" x="13.97" y="-20.32" size="1.778" layer="96"/>
</instance>
<instance part="JP15" gate="G$1" x="20.32" y="-22.86" smashed="yes">
<attribute name="NAME" x="13.97" y="-19.685" size="1.778" layer="95"/>
<attribute name="VALUE" x="13.97" y="-27.94" size="1.778" layer="96"/>
</instance>
<instance part="JP16" gate="G$1" x="50.8" y="-22.86" smashed="yes">
<attribute name="NAME" x="52.07" y="-24.765" size="1.778" layer="95"/>
<attribute name="VALUE" x="44.45" y="-27.94" size="1.778" layer="96"/>
</instance>
<instance part="JP7" gate="G$1" x="50.8" y="-30.48" smashed="yes">
<attribute name="NAME" x="52.07" y="-32.385" size="1.778" layer="95"/>
<attribute name="VALUE" x="44.45" y="-35.56" size="1.778" layer="96"/>
</instance>
<instance part="JP17" gate="G$1" x="50.8" y="-38.1" smashed="yes">
<attribute name="NAME" x="52.07" y="-40.005" size="1.778" layer="95"/>
<attribute name="VALUE" x="44.45" y="-43.18" size="1.778" layer="96"/>
</instance>
<instance part="JP18" gate="G$1" x="20.32" y="-30.48" smashed="yes">
<attribute name="NAME" x="21.59" y="-32.385" size="1.778" layer="95"/>
<attribute name="VALUE" x="13.97" y="-35.56" size="1.778" layer="96"/>
</instance>
<instance part="JP19" gate="G$1" x="20.32" y="-38.1" smashed="yes">
<attribute name="NAME" x="21.59" y="-40.005" size="1.778" layer="95"/>
<attribute name="VALUE" x="13.97" y="-43.18" size="1.778" layer="96"/>
</instance>
<instance part="JP20" gate="G$1" x="50.8" y="-45.72" smashed="yes">
<attribute name="NAME" x="52.07" y="-47.625" size="1.778" layer="95"/>
<attribute name="VALUE" x="44.45" y="-50.8" size="1.778" layer="96"/>
</instance>
<instance part="R1" gate="G$1" x="73.66" y="22.86" smashed="yes">
<attribute name="NAME" x="69.85" y="24.3586" size="1.778" layer="95"/>
<attribute name="VALUE" x="69.85" y="19.558" size="1.778" layer="96"/>
</instance>
<instance part="R2" gate="G$1" x="73.66" y="17.78" smashed="yes">
<attribute name="NAME" x="69.85" y="19.2786" size="1.778" layer="95"/>
<attribute name="VALUE" x="69.85" y="14.478" size="1.778" layer="96"/>
</instance>
<instance part="R3" gate="G$1" x="73.66" y="12.7" smashed="yes">
<attribute name="NAME" x="69.85" y="14.1986" size="1.778" layer="95"/>
<attribute name="VALUE" x="69.85" y="9.398" size="1.778" layer="96"/>
</instance>
<instance part="R4" gate="G$1" x="73.66" y="5.08" smashed="yes">
<attribute name="NAME" x="69.85" y="6.5786" size="1.778" layer="95"/>
<attribute name="VALUE" x="69.85" y="1.778" size="1.778" layer="96"/>
</instance>
<instance part="R5" gate="G$1" x="73.66" y="-2.54" smashed="yes">
<attribute name="NAME" x="69.85" y="-1.0414" size="1.778" layer="95"/>
<attribute name="VALUE" x="69.85" y="-5.842" size="1.778" layer="96"/>
</instance>
<instance part="R6" gate="G$1" x="73.66" y="-10.16" smashed="yes">
<attribute name="NAME" x="69.85" y="-8.6614" size="1.778" layer="95"/>
<attribute name="VALUE" x="69.85" y="-13.462" size="1.778" layer="96"/>
</instance>
</instances>
<busses>
</busses>
<nets>
<net name="N$1" class="0">
<segment>
<pinref part="U1" gate="G$1" pin="A0"/>
<wire x1="78.74" y1="22.86" x2="81.28" y2="22.86" width="0.1524" layer="91"/>
<wire x1="81.28" y1="22.86" x2="81.28" y2="30.48" width="0.1524" layer="91"/>
<pinref part="R1" gate="G$1" pin="2"/>
</segment>
</net>
<net name="N$2" class="0">
<segment>
<pinref part="U1" gate="G$1" pin="A1"/>
<wire x1="78.74" y1="17.78" x2="83.82" y2="17.78" width="0.1524" layer="91"/>
<wire x1="83.82" y1="17.78" x2="83.82" y2="30.48" width="0.1524" layer="91"/>
<pinref part="R2" gate="G$1" pin="2"/>
</segment>
</net>
<net name="N$5" class="0">
<segment>
<pinref part="U1" gate="G$1" pin="A2"/>
<wire x1="78.74" y1="12.7" x2="86.36" y2="12.7" width="0.1524" layer="91"/>
<wire x1="86.36" y1="12.7" x2="86.36" y2="30.48" width="0.1524" layer="91"/>
<pinref part="JP3" gate="G$1" pin="1"/>
<wire x1="48.26" y1="7.62" x2="78.74" y2="7.62" width="0.1524" layer="91"/>
<wire x1="78.74" y1="7.62" x2="78.74" y2="12.7" width="0.1524" layer="91"/>
<pinref part="R3" gate="G$1" pin="2"/>
<junction x="78.74" y="12.7"/>
</segment>
</net>
<net name="N$6" class="0">
<segment>
<pinref part="U1" gate="G$1" pin="A4/SDA"/>
<wire x1="78.74" y1="-2.54" x2="91.44" y2="2.54" width="0.1524" layer="91"/>
<wire x1="91.44" y1="2.54" x2="91.44" y2="30.48" width="0.1524" layer="91"/>
<pinref part="JP5" gate="G$1" pin="1"/>
<wire x1="48.26" y1="-7.62" x2="78.74" y2="-7.62" width="0.1524" layer="91"/>
<wire x1="78.74" y1="-7.62" x2="78.74" y2="-2.54" width="0.1524" layer="91"/>
<pinref part="R5" gate="G$1" pin="2"/>
<junction x="78.74" y="-2.54"/>
</segment>
</net>
<net name="N$7" class="0">
<segment>
<pinref part="U1" gate="G$1" pin="A5/SCL"/>
<wire x1="78.74" y1="-10.16" x2="93.98" y2="-2.54" width="0.1524" layer="91"/>
<wire x1="93.98" y1="-2.54" x2="93.98" y2="30.48" width="0.1524" layer="91"/>
<pinref part="JP6" gate="G$1" pin="1"/>
<wire x1="48.26" y1="-15.24" x2="78.74" y2="-15.24" width="0.1524" layer="91"/>
<wire x1="78.74" y1="-15.24" x2="78.74" y2="-10.16" width="0.1524" layer="91"/>
<pinref part="R6" gate="G$1" pin="2"/>
<junction x="78.74" y="-10.16"/>
</segment>
</net>
<net name="N$8" class="0">
<segment>
<pinref part="JP1" gate="G$1" pin="1"/>
<wire x1="48.26" y1="22.86" x2="68.58" y2="22.86" width="0.1524" layer="91"/>
<pinref part="R1" gate="G$1" pin="1"/>
</segment>
</net>
<net name="N$9" class="0">
<segment>
<pinref part="JP2" gate="G$1" pin="1"/>
<wire x1="48.26" y1="15.24" x2="48.26" y2="17.78" width="0.1524" layer="91"/>
<wire x1="48.26" y1="17.78" x2="68.58" y2="17.78" width="0.1524" layer="91"/>
<pinref part="R2" gate="G$1" pin="1"/>
</segment>
</net>
<net name="N$4" class="0">
<segment>
<pinref part="U1" gate="G$1" pin="A3"/>
<wire x1="88.9" y1="7.62" x2="88.9" y2="30.48" width="0.1524" layer="91"/>
<wire x1="78.74" y1="5.08" x2="88.9" y2="7.62" width="0.1524" layer="91"/>
<pinref part="JP4" gate="G$1" pin="1"/>
<wire x1="48.26" y1="0" x2="78.74" y2="0" width="0.1524" layer="91"/>
<wire x1="78.74" y1="0" x2="78.74" y2="5.08" width="0.1524" layer="91"/>
<pinref part="R4" gate="G$1" pin="2"/>
<junction x="78.74" y="5.08"/>
</segment>
</net>
<net name="N$11" class="0">
<segment>
<pinref part="JP8" gate="G$1" pin="1"/>
<wire x1="17.78" y1="30.48" x2="55.88" y2="30.48" width="0.1524" layer="91"/>
<wire x1="55.88" y1="30.48" x2="55.88" y2="25.4" width="0.1524" layer="91"/>
<pinref part="U1" gate="G$1" pin="5V"/>
<wire x1="55.88" y1="25.4" x2="68.58" y2="30.48" width="0.1524" layer="91"/>
<pinref part="JP9" gate="G$1" pin="1"/>
<wire x1="17.78" y1="30.48" x2="17.78" y2="22.86" width="0.1524" layer="91"/>
<pinref part="JP13" gate="G$1" pin="1"/>
<wire x1="17.78" y1="22.86" x2="17.78" y2="15.24" width="0.1524" layer="91"/>
<junction x="17.78" y="22.86"/>
<pinref part="JP10" gate="G$1" pin="1"/>
<wire x1="17.78" y1="15.24" x2="17.78" y2="7.62" width="0.1524" layer="91"/>
<junction x="17.78" y="15.24"/>
<pinref part="JP11" gate="G$1" pin="1"/>
<wire x1="17.78" y1="7.62" x2="17.78" y2="0" width="0.1524" layer="91"/>
<junction x="17.78" y="7.62"/>
<pinref part="JP12" gate="G$1" pin="1"/>
<wire x1="17.78" y1="0" x2="17.78" y2="-7.62" width="0.1524" layer="91"/>
<junction x="17.78" y="0"/>
<pinref part="JP15" gate="G$1" pin="1"/>
<wire x1="17.78" y1="-7.62" x2="17.78" y2="-15.24" width="0.1524" layer="91"/>
<junction x="17.78" y="-7.62"/>
<pinref part="JP14" gate="G$1" pin="1"/>
<wire x1="17.78" y1="-15.24" x2="17.78" y2="-22.86" width="0.1524" layer="91"/>
<junction x="17.78" y="-15.24"/>
<pinref part="JP18" gate="G$1" pin="1"/>
<wire x1="17.78" y1="-30.48" x2="17.78" y2="-22.86" width="0.1524" layer="91"/>
<junction x="17.78" y="-22.86"/>
<pinref part="JP19" gate="G$1" pin="1"/>
<wire x1="17.78" y1="-38.1" x2="17.78" y2="-30.48" width="0.1524" layer="91"/>
<junction x="17.78" y="-30.48"/>
</segment>
</net>
<net name="N$3" class="0">
<segment>
<pinref part="JP20" gate="G$1" pin="1"/>
<wire x1="48.26" y1="-45.72" x2="68.58" y2="-45.72" width="0.1524" layer="91"/>
<pinref part="JP17" gate="G$1" pin="1"/>
<wire x1="48.26" y1="-38.1" x2="68.58" y2="-38.1" width="0.1524" layer="91"/>
<pinref part="JP7" gate="G$1" pin="1"/>
<wire x1="48.26" y1="-30.48" x2="68.58" y2="-30.48" width="0.1524" layer="91"/>
<wire x1="63.5" y1="27.94" x2="71.12" y2="27.94" width="0.1524" layer="91"/>
<pinref part="U1" gate="G$1" pin="GND2"/>
<wire x1="71.12" y1="27.94" x2="71.12" y2="30.48" width="0.1524" layer="91"/>
<wire x1="63.5" y1="27.94" x2="63.5" y2="12.7" width="0.1524" layer="91"/>
<wire x1="68.58" y1="12.7" x2="68.58" y2="5.08" width="0.1524" layer="91"/>
<wire x1="68.58" y1="5.08" x2="68.58" y2="-2.54" width="0.1524" layer="91"/>
<wire x1="63.5" y1="12.7" x2="68.58" y2="12.7" width="0.1524" layer="91"/>
<pinref part="JP16" gate="G$1" pin="1"/>
<wire x1="48.26" y1="-22.86" x2="68.58" y2="-22.86" width="0.1524" layer="91"/>
<wire x1="68.58" y1="-22.86" x2="68.58" y2="-10.16" width="0.1524" layer="91"/>
<wire x1="68.58" y1="-10.16" x2="68.58" y2="-2.54" width="0.1524" layer="91"/>
<wire x1="68.58" y1="-30.48" x2="68.58" y2="-22.86" width="0.1524" layer="91"/>
<junction x="68.58" y="-22.86"/>
<wire x1="68.58" y1="-38.1" x2="68.58" y2="-30.48" width="0.1524" layer="91"/>
<junction x="68.58" y="-30.48"/>
<wire x1="68.58" y1="-45.72" x2="68.58" y2="-38.1" width="0.1524" layer="91"/>
<junction x="68.58" y="-38.1"/>
<pinref part="R3" gate="G$1" pin="1"/>
<junction x="68.58" y="12.7"/>
<pinref part="R4" gate="G$1" pin="1"/>
<junction x="68.58" y="5.08"/>
<pinref part="R5" gate="G$1" pin="1"/>
<junction x="68.58" y="-2.54"/>
<pinref part="R6" gate="G$1" pin="1"/>
<junction x="68.58" y="-10.16"/>
</segment>
</net>
</nets>
</sheet>
</sheets>
</schematic>
</drawing>
<compatibility>
<note version="8.2" severity="warning">
Since Version 8.2, EAGLE supports online libraries. The ids
of those online libraries will not be understood (or retained)
with this version.
</note>
<note version="8.3" severity="warning">
Since Version 8.3, EAGLE supports URNs for individual library
assets (packages, symbols, and devices). The URNs of those assets
will not be understood (or retained) with this version.
</note>
<note version="8.3" severity="warning">
Since Version 8.3, EAGLE supports the association of 3D packages
with devices in libraries, schematics, and board files. Those 3D
packages will not be understood (or retained) with this version.
</note>
</compatibility>
</eagle>
